<?xml version="1.0" encoding="utf-8"?>
<COLLADA xmlns="http://www.collada.org/2005/11/COLLADASchema" version="1.4.1" xmlns:xsi="http://www.w3.org/2001/XMLSchema-instance">
  <asset>
    <contributor>
      <author>Blender User</author>
      <authoring_tool>Blender 2.90.1 commit date:2020-09-23, commit time:06:43, hash:3e85bb34d0d7</authoring_tool>
    </contributor>
    <created>2020-11-05T11:25:12</created>
    <modified>2020-11-05T11:25:12</modified>
    <unit name="meter" meter="1"/>
    <up_axis>Z_UP</up_axis>
  </asset>
  <library_effects>
    <effect id="CiscoPPhone-effect">
      <profile_COMMON>
        <newparam sid="CicsoIPPhone_png-surface">
          <surface type="2D">
            <init_from>CicsoIPPhone_png</init_from>
          </surface>
        </newparam>
        <newparam sid="CicsoIPPhone_png-sampler">
          <sampler2D>
            <source>CicsoIPPhone_png-surface</source>
          </sampler2D>
        </newparam>
        <technique sid="common">
          <lambert>
            <emission>
              <color sid="emission">0 0 0 1</color>
            </emission>
            <diffuse>
              <texture texture="CicsoIPPhone_png-sampler" texcoord="UVMap"/>
            </diffuse>
            <index_of_refraction>
              <float sid="ior">1.45</float>
            </index_of_refraction>
          </lambert>
        </technique>
      </profile_COMMON>
    </effect>
  </library_effects>
  <library_images>
    <image id="CicsoIPPhone_png" name="CicsoIPPhone_png">
      <init_from>CicsoIPPhone.png</init_from>
    </image>
  </library_images>
  <library_materials>
    <material id="CiscoPPhone-material" name="CiscoPPhone">
      <instance_effect url="#CiscoPPhone-effect"/>
    </material>
  </library_materials>
  <library_geometries>
    <geometry id="Cube-mesh" name="Cube">
      <mesh>
        <source id="Cube-mesh-positions">
          <float_array id="Cube-mesh-positions-array" count="354">0.1256353 -0.03136938 0.1145457 0.1162127 0.06702136 0.01210772 0.1047887 -0.05135989 0.09504622 0.1151499 0.03218102 0 -0.1261073 -0.02828013 0.1166986 -0.1310226 0.0752744 0.008794248 -0.1058794 -0.04796177 0.09881299 -0.1123483 0.02130907 0.002391338 -0.03252744 0.07629436 0.005660414 -0.03245121 -0.05901056 0.09398537 -0.0327993 0.01738208 0 0.05758059 0.01738208 0 0.05882942 -0.03065836 0.1152255 0.06840807 0.06753015 0.01259422 0.07754808 -0.05287969 0.09625804 0.1168474 -0.06277281 0.1474958 0.1060777 -0.08582353 0.1326826 0.06904602 -0.06226408 0.1479822 0.07883709 -0.08734333 0.1338943 0.04260623 0.07429635 0.006130158 0.05541926 -0.0550782 0.09398537 0.03878188 0.01738208 0 0.04258483 -0.03033167 0.1152507 -0.1132395 0.07546621 0.008220613 -0.0813784 -0.0538398 0.09846693 -0.06149017 0.01946675 -2.03932e-4 -0.1092267 -0.02850699 0.1165764 -0.1217301 0.06793761 0.001894652 0.1213926 -0.03958195 0.106258 -0.11599 -0.03796017 0.1079097 0.1203735 0.06762802 0 -0.0326662 0.06791424 -0.00179553 -0.0324741 -0.04851156 0.09639573 0.06284379 -0.04016137 0.1071116 0.0581786 0.06801307 0 0.1224735 -0.07399463 0.1439476 0.06392472 -0.07457405 0.1448011 0.04068058 0.0679959 -3.11796e-4 0.03511822 -0.03945565 0.1077519 -0.08510696 0.06793445 0.001214802 -0.09860473 -0.03811275 0.1079818 0.1112251 0.03502219 0.04559445 -0.1087583 -0.01713377 0.05590194 0.1123262 -0.01265949 0.05412173 -0.1282621 0.01771038 0.06876248 -0.03248739 0.01868671 0.0657081 -0.03250163 -0.02626264 0.05215853 0.06728565 -0.02349823 0.05215853 0.07335394 0.03542894 0.04597604 0.04263913 0.01655787 0.06632894 0.04801505 -0.02283078 0.05215853 -0.1109747 0.01789402 0.06820344 -0.07245481 -0.02463555 0.05210864 0.1191513 0.007210612 0.05219507 -0.1185446 -0.001388013 0.0607292 -0.1093875 -0.05693924 0.1462231 -0.03256261 -0.05796587 0.1456606 0.04242396 -0.05876392 0.1448975 -0.03247684 -0.07713174 0.125863 0.03495353 -0.06807583 0.1372191 -0.09876948 -0.06673294 0.137449 -0.1092239 -0.0259791 0.1190903 -0.03255516 -0.02700465 0.1185292 0.04258805 -0.02779924 0.1177598 -0.03248506 0.02118486 0.06825327 0.04263246 0.0190683 0.06886351 -0.1109795 0.02039641 0.07074558 -0.1094349 -0.05430608 0.1486474 -0.03260415 -0.05533331 0.1480847 0.04237711 -0.05612623 0.1473169 0.1256828 0.02846676 0.05212527 0.125611 0.0734896 0.005203545 0.05880504 0.07420057 0.005883395 0.05887693 0.02917778 0.05280512 0.05972224 -0.06589937 0.1519696 0.1265282 -0.06661039 0.1512897 0.07287031 -0.03075784 0.1150305 0.1115944 -0.0312699 0.1147406 0.07327145 0.02412641 0.03595435 0.1111509 0.02412295 0.0359584 0.1160978 0.05413866 5.74888e-4 0.06828272 0.05413866 5.74886e-4 0.07287406 -0.03657323 0.1101439 0.1116067 -0.03666651 0.1102545 0.06910014 -0.05688214 0.1415123 0.1169119 -0.05688214 0.1415123 0.07362449 0.03521794 0.04448997 0.1115039 0.03521448 0.04449403 0.1164508 0.06507503 0.008979439 0.06863576 0.06507503 0.008979439 0.07322704 -0.03121346 0.1136894 0.1119598 -0.03133589 0.1137665 0.06945312 -0.06515079 0.1412116 0.1172649 -0.06515079 0.1412116 0.1165657 0.0784977 0.02328366 0.06876105 0.07895743 0.02381676 0.1172926 -0.05951756 0.15025 0.0694912 -0.05905789 0.150783 0.1115781 0.04241365 0.05383366 0.07370692 0.04278188 0.05425256 0.07322335 -0.0287103 0.1163445 0.1119474 -0.0291922 0.1160068 0.1134107 0.07007402 0.06112277 0.07195788 0.06976246 0.0616241 0.114041 -0.01531577 0.1426985 0.072591 -0.01471745 0.142706 0.1090858 0.04107069 0.06811243 0.07624655 0.04082626 0.06850981 0.07582724 -0.008420884 0.1184268 0.1094061 -0.008928418 0.1184784 0.07452529 -0.02001053 0.1200109 0.0710411 -0.04014456 0.15213 0.1106768 -0.02050524 0.1198679 0.1156668 -0.04067355 0.1518597 0.07035946 0.08079147 0.04151928 0.07497674 0.04316765 0.06195533 0.110332 0.04310578 0.06154721 0.1149882 0.08071738 0.04100209</float_array>
          <technique_common>
            <accessor source="#Cube-mesh-positions-array" count="118" stride="3">
              <param name="X" type="float"/>
              <param name="Y" type="float"/>
              <param name="Z" type="float"/>
            </accessor>
          </technique_common>
        </source>
        <source id="Cube-mesh-normals">
          <float_array id="Cube-mesh-normals-array" count="609">-0.03681224 -0.6252005 0.7795956 -0.07677054 -0.6484029 0.7574167 0.04042613 -0.4685941 0.8824881 -0.1213937 -0.7918942 -0.5984707 -0.525229 -0.7104252 -0.4684342 -0.5788474 -0.6757615 -0.4563794 -0.8807743 -0.3789574 -0.2839509 -0.8150998 -0.4714561 -0.3366625 -0.8874616 -0.3354039 -0.3160952 0.005568325 0.37507 -0.9269798 0 0 -1 0.002059757 -0.002685666 -0.9999943 0.8489601 -0.3908777 -0.3556424 0.6045223 -0.6049869 -0.518212 0.9185031 -0.2973638 -0.2606277 0.01472288 0.7218216 0.6919226 0.01472353 0.7218077 0.6919371 0.01472377 0.721808 0.6919369 -0.003610551 -0.6745484 0.7382218 -0.00168246 -0.6774023 0.7356109 -0.003668308 -0.6773704 0.735633 -0.01515918 0.3442372 -0.9387603 -0.03358501 -0.0104478 -0.9993814 -0.03846776 0.3298773 -0.9432398 0.004624426 -0.7902947 -0.6127094 -0.03113692 -0.8017683 -0.5968233 -0.004203855 -0.7790403 -0.6269599 0.0100919 -0.6298336 0.7766646 -0.02137893 -0.2687165 0.9629821 0.003765463 -0.6538281 0.7566338 -0.1673908 -0.7772468 -0.6065211 -0.8542897 -0.396354 -0.3362925 -0.8705717 -0.3723521 -0.3216502 0.3897357 -0.7072559 -0.5898265 0.08630126 -0.7800964 -0.6196787 0.01517492 0.721718 0.692021 0.0149877 0.7218311 0.691907 0.01517003 0.7217196 0.6920193 0.01891827 0.382678 -0.9236882 0.006393373 -0.01215422 -0.9999057 0.01583266 -0.6443088 0.7646016 0.02575415 -0.6864028 0.7267655 0.01730066 -0.7075186 0.706483 0.937905 -0.2424774 -0.2480704 0.8406316 -0.3860306 -0.3798937 0.3843289 -0.6753156 -0.6294761 -0.4051955 -0.6811224 -0.609827 -0.6376837 -0.5025619 0.5837733 0.03244775 -0.7189705 -0.6942828 0.09428507 -0.7099382 -0.6979241 0.002211451 -0.03551638 -0.9993667 -0.001587152 0.7136175 -0.7005339 0.02593559 0.7103657 -0.7033548 0.02594006 0.7102715 -0.7034498 -0.005598664 -0.6543186 0.7561984 -0.01211047 -0.6571564 0.753657 0.07290279 -0.7995331 -0.5961813 -0.03781718 -0.003120183 -0.9992798 -0.02398693 0.4366485 -0.8993125 0.01471149 0.7218503 0.6918929 0.0147044 0.7217274 0.6920212 0.01470983 0.7217656 0.6919813 -0.03100311 -0.2428997 0.9695559 -0.5294607 -0.6083194 -0.5912859 -0.7761862 -0.4508131 -0.4407979 -0.7714807 -0.4571093 -0.4425707 -0.02065867 0.6516564 -0.7582329 -0.03126978 0.6634284 -0.7475861 -0.001854717 -0.6400286 0.7683489 -0.01194012 -0.652204 0.7579495 -0.01312834 0.663817 -0.7477799 0.01493245 -0.6995179 0.7144592 0.01385605 0.7086152 -0.7054592 -0.9393137 -0.2652529 -0.2175567 -0.9520756 -0.2319734 -0.1993505 -0.009397685 -0.7172995 -0.6967015 -0.5308035 -0.6064589 -0.5919926 0.9100289 -0.2872297 -0.298909 -0.001332581 0.6881482 -0.725569 -1.49089e-4 0.4269717 -0.9042651 -0.7980098 -0.5032013 -0.3316156 -0.006429076 -0.6732622 0.7393759 -0.007075905 -0.6746315 0.7381207 -0.7211019 -0.5374888 -0.4371703 -0.838218 -0.4039504 -0.3663533 0.8963533 -0.3169471 -0.3099924 0.831247 -0.400479 -0.3855453 -0.05166369 -0.761039 -0.6466457 -0.02604788 -0.766736 -0.6414338 0.01456671 0.7216572 0.6920974 0.01458805 0.7216258 0.6921297 0.09412437 -0.7790139 -0.6199015 0.01015251 -0.7850795 -0.6193119 0.01471281 0.721594 0.6921601 0.01486551 0.7215453 0.6922078 0.01470702 0.7215432 0.6922132 0.01543903 0.7210183 0.692744 0.798886 -0.459608 -0.387997 -0.6745984 0.4919367 -0.5503774 0.6740256 0.4871592 -0.5553067 0.678377 0.4845589 -0.5522748 -0.7348405 -0.5058791 -0.4517697 -0.00343734 -0.6944443 0.7195383 -0.001461863 -0.6777021 0.7353351 -0.006022214 -0.7184769 0.6955248 -0.002674043 -0.6513802 0.7587469 6.12418e-4 -0.6604521 0.7508679 0.5774012 -0.5881912 -0.5662502 -0.01110863 -0.717297 -0.696679 0.9609948 -0.2012449 -0.1897093 0.5696846 -0.5911462 -0.5709691 0.9836875 -0.1319602 -0.1222519 0.9999982 7.20215e-4 0.001791536 0.9999954 -0.002718091 0.001451969 -0.9999424 -0.007329702 0.007846713 -0.9996579 -0.0195043 0.01742422 -0.9996579 -0.01955872 0.01736617 0.01471841 0.7218391 0.6919044 0.01471841 0.7218403 0.6919032 0.01471847 0.7218391 0.6919044 0.01471835 0.7218391 0.6919044 0.01471835 0.7218415 0.6919021 0.01471829 0.7218403 0.6919032 0.01471847 0.7218413 0.6919021 0.01471829 0.7218416 0.6919019 3.07316e-4 -0.6760134 0.7368893 0.999915 0.006206572 0.0114718 -0.9999135 -0.006293833 -0.01155281 -0.9999464 -0.006738841 0.007866144 -0.02942192 0.7123557 -0.7012017 -0.002085566 0.7136493 -0.7005001 0.01349055 0.720607 0.6932125 0.01457816 0.7217923 0.6919562 0.01337182 0.7205646 0.693259 0.01592689 0.7205781 0.6931909 0.01156723 0.7210286 0.6928088 0.01455914 0.7217174 0.6920348 0.01488578 0.7217192 0.6920259 0.01464951 0.7335444 0.6794837 0.01473981 0.7218266 0.691917 0.01472395 0.7218213 0.6919229 0 0.7625802 0.6468937 0 0.7625801 0.6468938 0 0.7625802 0.6468938 -0.7339981 -0.4495115 0.5091034 0.7387437 -0.453754 0.4983625 -0.7361001 -0.448051 0.5073529 0.7377462 -0.4547307 0.4989494 -0.6715667 0.4933319 -0.5528308 1.98355e-4 0.8395704 0.543251 0.006896615 0.8014623 0.5980056 0 0.7773204 0.6291049 0.6411638 -0.4931204 0.5879978 -0.6308816 -0.4968383 0.5959364 0.6589449 -0.4894959 0.5711265 0.7003393 -0.5554872 -0.4482845 0.6219502 -0.7685484 -0.1500376 0.7173924 0.442075 -0.5384402 0.6632845 -0.3758053 0.6471662 -0.555082 -0.8317947 0.001233279 0.7503546 -0.584614 0.3085361 -0.7573056 -0.5795023 0.301107 0.6009213 -0.03781688 -0.7984131 -0.6048486 -0.03579151 -0.7955358 0.6864918 0.665954 -0.2919492 -0.6804518 0.6767668 -0.2810196 0.5510057 -0.8344992 -0.001979172 0.5434141 0.07005411 -0.8365367 -0.6125087 -0.7778087 -0.1408784 -0.5518313 0.06911307 -0.8310871 -0.6483917 -0.3714423 0.6645441 -0.7346636 0.429547 -0.5251274 -0.7330719 0.1696295 -0.6586588 -0.6841742 0.418905 0.5970128 -0.7048364 -0.3175719 -0.6343136 -0.7210044 -0.6925783 0.02209198 -0.7007561 0.5368085 0.4698696 -0.6562474 0.7281331 0.1978928 0.7169059 -0.695672 0.04567772 0.7012687 0.5411845 0.4640492 0.6569278 -0.6483746 -0.3847808 0.6632241 -0.3389612 -0.6672626 0.7122777 0.1761401 -0.6794374 0.7095554 0.4082138 0.5743629 0.6854736 0.14842 0.7128096 -0.6666046 0.1528234 0.7295776 0.6597433 0.7286164 0.1840026 -0.6594657 -0.6424092 -0.3904043 -0.1723336 -0.8181456 -0.548579 0.01559525 0.7218458 0.6918783 0.0689333 -0.6001605 0.7969038 0.9318083 -0.2503705 -0.2627697 0.01471257 0.7218501 0.6918931 0.001071214 -0.6367042 0.7711074 -5.39503e-4 0.6641567 -0.7475932 -0.00371468 -0.6743296 0.7384212 0.999998 7.82883e-4 0.001858115 0.01471847 0.7218402 0.6919033 -0.9999038 -0.006898164 -0.01203876 -0.02942061 0.7123259 -0.701232 0 0.7625802 0.6468939 4.70827e-4 0.8394014 0.543512 0.6654429 -0.5765837 -0.4740645</float_array>
          <technique_common>
            <accessor source="#Cube-mesh-normals-array" count="203" stride="3">
              <param name="X" type="float"/>
              <param name="Y" type="float"/>
              <param name="Z" type="float"/>
            </accessor>
          </technique_common>
        </source>
        <source id="Cube-mesh-map-0">
          <float_array id="Cube-mesh-map-0-array" count="1368">0.4945701 0.3274027 0.5161438 0.2798655 0.5644626 0.2805588 0.5947406 0.1688734 0.5161438 0.2798655 0.5260231 0.1705465 0.4905815 0.1716579 0.45056 0.2895565 0.4549567 0.1727748 0.3307545 0.2362409 0.4051138 0.2531222 0.329209 0.2690494 0.9733742 0.2828574 0.946275 0.1720206 0.9768685 0.1756933 0.03117167 0.6007592 0.142919 0.8474657 0.04568475 0.8529382 0.6027861 0.9752317 0.4264431 0.9572774 0.6247909 0.9592495 0.2115797 0.2336257 0.1748857 0.2675704 0.1427916 0.2364527 0.8205608 0.1706819 0.6494034 0.2793226 0.6698514 0.1702255 0.8092264 0.3127505 0.6494034 0.2793226 0.8457169 0.2790083 0.8963352 0.2813907 0.8611755 0.4216631 0.8619397 0.3520615 0.9444699 0.280798 0.8808969 0.170574 0.946275 0.1720206 0.2196148 0.6712386 0.1795333 0.8524646 0.1796021 0.6340094 0.307779 0.2354264 0.329209 0.2690494 0.3049843 0.2689424 0.8613898 0.4589611 0.9437958 0.4214811 0.9782777 0.4523373 1.000147 0.2848625 0.9720575 0.4233675 0.9733742 0.2828574 0.8963352 0.2813907 0.9437958 0.4214811 0.8959566 0.4237412 0.129759 0.5932927 0.1388948 0.5057442 0.1509889 0.4822199 0.2115797 0.2336257 0.3049843 0.2689424 0.2120717 0.2692972 0.4246602 0.6726797 0.2297873 0.6784779 0.2313367 0.6752781 0.8651776 0.3168736 0.8457169 0.2790083 0.8963352 0.2813907 0.8808969 0.170574 0.8457169 0.2790083 0.8205608 0.1706819 0.1427916 0.2364527 0.1081554 0.2683783 0.09443604 0.2384924 0.6700777 0.8554616 0.6341786 0.6751408 0.6716383 0.6763731 0.6494034 0.2793226 0.5947406 0.1688734 0.6698514 0.1702255 0.6482186 0.2909029 0.5644626 0.2805588 0.6494034 0.2793226 0.7442048 0.4043075 0.7645869 0.3409274 0.7702341 0.4026702 0.1044202 0.2064337 0.09443604 0.2384924 0.0808162 0.2085604 0.8137278 0.3652427 0.8651776 0.3168736 0.8414418 0.3656609 0.2111105 0.1975267 0.307779 0.2354264 0.2115797 0.2336257 0.9733742 0.2828574 0.9437958 0.4214811 0.9444699 0.280798 0.9880668 0.4812254 0.8613898 0.4589611 0.9782777 0.4523373 0.3107346 0.2015146 0.3307545 0.2362409 0.307779 0.2354264 0.8619397 0.3520615 0.8499992 0.4203033 0.8546566 0.3508625 0.7442048 0.4043075 0.6442191 0.3559303 0.7385578 0.3425647 0.2111105 0.1975267 0.1427916 0.2364527 0.1044202 0.2064337 1.000147 0.2848625 0.9768685 0.1756933 0.9988596 0.1793087 0.3322466 0.2035571 0.4129387 0.229618 0.3307545 0.2362409 0.5260231 0.1705465 0.4833705 0.2847176 0.4905815 0.1716579 0.4829096 0.3645224 0.459645 0.3212748 0.4945701 0.3274027 0.5376508 0.01670312 0.4905815 0.1716579 0.4994121 0.02922987 0.9988596 0.1793087 0.9603938 0.0392183 0.9908279 0.05635005 0.6698514 0.1702255 0.6289429 0.01729708 0.679816 0.01602751 0.6732657 0.473008 0.6341786 0.6751408 0.6382144 0.4698936 0.8635714 0.01620966 0.8205608 0.1706819 0.8069275 0.01628839 0.4251009 0.6746165 0.2192078 0.4673466 0.4246128 0.4573439 0.2192078 0.4673466 0.1796021 0.6340094 0.1795333 0.4696552 0.946275 0.1720206 0.8635714 0.01620966 0.9241939 0.02212089 0.8069275 0.01628839 0.6698514 0.1702255 0.679816 0.01602751 0.6382144 0.4698936 0.4251009 0.6746165 0.4246128 0.4573439 0.142919 0.8474657 0.06648117 0.8706126 0.04568475 0.8529382 0.9768685 0.1756933 0.9241939 0.02212089 0.9603938 0.0392183 0.4994121 0.02922987 0.4549567 0.1727748 0.4611856 0.04177361 0.5947406 0.1688734 0.5376508 0.01670312 0.6289429 0.01729708 0.6446904 0.3146868 0.7385578 0.3425647 0.6442191 0.3559303 0.6446904 0.3146868 0.5487302 0.3424167 0.536547 0.3214138 0.5432535 0.4041364 0.6442191 0.3559303 0.6445376 0.4131917 0.5432535 0.4041364 0.5233875 0.341732 0.5487302 0.3424167 0.226339 0.8523778 0.2297873 0.6784779 0.2264902 0.8530322 0.6306518 0.8492468 0.6292757 0.6792694 0.6311134 0.6810713 0.6292757 0.6792694 0.425867 0.8522777 0.4247219 0.6750283 0.425867 0.8522777 0.2297873 0.6784779 0.4247219 0.6750283 0.425867 0.8522777 0.2271419 0.9543725 0.2264902 0.8530322 0.425867 0.8522777 0.6247909 0.9592495 0.4264431 0.9572774 0.4265568 0.9790669 0.2271419 0.9543725 0.4264431 0.9572774 0.226339 0.8523778 0.2271419 0.9543725 0.2272794 0.957229 0.6306518 0.8492468 0.6247909 0.9592495 0.6266836 0.8560995 0.6265852 0.6769588 0.4247219 0.6750283 0.4246602 0.6726797 0.1537675 0.9602916 0.1720363 0.825564 0.1761814 0.9793521 0.03626942 0.9666367 0.1761814 0.9793521 0.0134378 0.9910773 0.03626942 0.9666367 0.01412808 0.8320695 0.04568475 0.8529382 0.1509889 0.4822199 -5.82218e-4 0.4640635 0.1761814 0.4690481 0.02371424 0.4784779 -0.005156695 0.6018615 -5.82218e-4 0.4640635 0.1509889 0.4822199 0.1649404 0.5947118 0.129759 0.5932927 0.129759 0.5932927 0.1720363 0.825564 0.142919 0.8474657 0.03117167 0.6007592 0.01412808 0.8320695 -0.005156695 0.6018615 0.06648117 0.8706126 0.1297748 0.943996 0.05499631 0.9430009 0.1537675 0.9602916 0.05499631 0.9430009 0.1297748 0.943996 0.04568475 0.8529382 0.05499631 0.9430009 0.03626942 0.9666367 0.142919 0.8474657 0.1297748 0.943996 0.1282805 0.8705699 0.1150655 0.5785822 0.03261154 0.5000551 0.1388948 0.5057442 0.1509889 0.4822199 0.03261154 0.5000551 0.02371424 0.4784779 0.129759 0.5932927 0.04953765 0.5787482 0.1150655 0.5785822 0.03117167 0.6007592 0.03261154 0.5000551 0.04953765 0.5787482 0.7206337 0.9826509 0.7140887 0.9589676 0.7206378 0.9584596 0.8323739 0.4954946 0.8414826 0.541412 0.8319606 0.5306796 0.9961206 0.8784906 0.8795993 0.7561466 0.9961206 0.7546678 0.7206394 0.5145845 0.8242468 0.4732793 0.8241966 0.5180215 0.8241966 0.5180215 0.8323739 0.4954946 0.8319606 0.5306796 0.7140839 0.4868294 0.7206394 0.5145845 0.7141052 0.5186582 0.8823321 0.8801399 1.001955 0.9986261 0.8826778 0.9965935 0.8242246 0.9828109 0.7206378 0.9584596 0.8241845 0.9582681 0.8414521 0.9584559 0.8322836 0.9694571 0.8321759 0.9585335 0.8321759 0.9585335 0.8242246 0.9828109 0.8241845 0.9582681 0.8359168 0.9129895 0.8324022 0.8667065 0.8396576 0.8674456 0.831807 0.5486926 0.8242591 0.5900058 0.8242278 0.5540136 0.7141145 0.536258 0.7206414 0.5935543 0.7141238 0.5538578 0.8359168 0.9129895 0.849166 0.8672994 0.845309 0.9128777 0.7181875 0.9134485 0.7287997 0.8666737 0.7247188 0.9125667 0.8282933 0.9124872 0.7287997 0.8666737 0.8324022 0.8667065 0.8242278 0.5540136 0.7206414 0.5935543 0.7206404 0.5540694 0.831807 0.5486926 0.8411744 0.57822 0.8316535 0.5667057 0.7141238 0.5538578 0.7287997 0.8666737 0.7222861 0.8679292 0.7206414 0.5935543 0.8324022 0.8667065 0.7287997 0.8666737 0.8316535 0.5667057 0.8324022 0.8667065 0.8242591 0.5900058 0.8316535 0.5667057 0.849166 0.8672994 0.8396576 0.8674456 0.8241845 0.9582681 0.7247188 0.9125667 0.8282933 0.9124872 0.7140887 0.9589676 0.7247188 0.9125667 0.7206378 0.9584596 0.8321759 0.9585335 0.845309 0.9128777 0.8414521 0.9584559 0.8321759 0.9585335 0.8282933 0.9124872 0.8359168 0.9129895 0.8319606 0.5306796 0.8413285 0.559816 0.831807 0.5486926 0.8241966 0.5180215 0.7206404 0.5540694 0.7206394 0.5145845 0.7141052 0.5186582 0.7206404 0.5540694 0.7141145 0.536258 0.8319606 0.5306796 0.8242278 0.5540136 0.8241966 0.5180215 0.4945701 0.3274027 0.459645 0.3212748 0.5161438 0.2798655 0.5947406 0.1688734 0.5644626 0.2805588 0.5161438 0.2798655 0.4905815 0.1716579 0.4833705 0.2847176 0.45056 0.2895565 0.3307545 0.2362409 0.4129387 0.229618 0.4051138 0.2531222 0.9733742 0.2828574 0.9444699 0.280798 0.946275 0.1720206 0.03117167 0.6007592 0.129759 0.5932927 0.142919 0.8474657 0.6027861 0.9752317 0.4265568 0.9790669 0.4264431 0.9572774 0.2115797 0.2336257 0.2120717 0.2692972 0.1748857 0.2675704 0.8205608 0.1706819 0.8457169 0.2790083 0.6494034 0.2793226 0.8092264 0.3127505 0.6482186 0.2909029 0.6494034 0.2793226 0.8963352 0.2813907 0.8959566 0.4237412 0.8611755 0.4216631 0.9444699 0.280798 0.8963352 0.2813907 0.8808969 0.170574 0.2196148 0.6712386 0.2212916 0.8524796 0.1795333 0.8524646 0.307779 0.2354264 0.3307545 0.2362409 0.329209 0.2690494 0.8613898 0.4589611 0.8959566 0.4237412 0.9437958 0.4214811 1.000147 0.2848625 1.002556 0.4250322 0.9720575 0.4233675 0.8963352 0.2813907 0.9444699 0.280798 0.9437958 0.4214811 0.129759 0.5932927 0.1150655 0.5785822 0.1388948 0.5057442 0.2115797 0.2336257 0.307779 0.2354264 0.3049843 0.2689424 0.4246602 0.6726797 0.4247219 0.6750283 0.2297873 0.6784779 0.8651776 0.3168736 0.8092264 0.3127505 0.8457169 0.2790083 0.8808969 0.170574 0.8963352 0.2813907 0.8457169 0.2790083 0.1427916 0.2364527 0.1748857 0.2675704 0.1081554 0.2683783 0.6700777 0.8554616 0.6336467 0.8532778 0.6341786 0.6751408 0.6494034 0.2793226 0.5644626 0.2805588 0.5947406 0.1688734 0.6482186 0.2909029 0.4945701 0.3274027 0.5644626 0.2805588 0.7442048 0.4043075 0.7385578 0.3425647 0.7645869 0.3409274 0.1044202 0.2064337 0.1427916 0.2364527 0.09443604 0.2384924 0.8137278 0.3652427 0.8092264 0.3127505 0.8651776 0.3168736 0.2111105 0.1975267 0.3107346 0.2015146 0.307779 0.2354264 0.9733742 0.2828574 0.9720575 0.4233675 0.9437958 0.4214811 0.9880668 0.4812254 0.8546667 0.4884371 0.8613898 0.4589611 0.3107346 0.2015146 0.3322466 0.2035571 0.3307545 0.2362409 0.8619397 0.3520615 0.8611755 0.4216631 0.8499992 0.4203033 0.7442048 0.4043075 0.6445376 0.4131917 0.6442191 0.3559303 0.2111105 0.1975267 0.2115797 0.2336257 0.1427916 0.2364527 1.000147 0.2848625 0.9733742 0.2828574 0.9768685 0.1756933 0.3322466 0.2035571 0.420705 0.2068239 0.4129387 0.229618 0.5260231 0.1705465 0.5161438 0.2798655 0.4833705 0.2847176 0.4829096 0.3645224 0.4490321 0.3625534 0.459645 0.3212748 0.5376508 0.01670312 0.5260231 0.1705465 0.4905815 0.1716579 0.9988596 0.1793087 0.9768685 0.1756933 0.9603938 0.0392183 0.6698514 0.1702255 0.5947406 0.1688734 0.6289429 0.01729708 0.6732657 0.473008 0.6716383 0.6763731 0.6341786 0.6751408 0.8635714 0.01620966 0.8808969 0.170574 0.8205608 0.1706819 0.4251009 0.6746165 0.2196148 0.6712386 0.2192078 0.4673466 0.2192078 0.4673466 0.2196148 0.6712386 0.1796021 0.6340094 0.946275 0.1720206 0.8808969 0.170574 0.8635714 0.01620966 0.8069275 0.01628839 0.8205608 0.1706819 0.6698514 0.1702255 0.6382144 0.4698936 0.6341786 0.6751408 0.4251009 0.6746165 0.142919 0.8474657 0.1282805 0.8705699 0.06648117 0.8706126 0.9768685 0.1756933 0.946275 0.1720206 0.9241939 0.02212089 0.4994121 0.02922987 0.4905815 0.1716579 0.4549567 0.1727748 0.5947406 0.1688734 0.5260231 0.1705465 0.5376508 0.01670312 0.6446904 0.3146868 0.7554792 0.3241577 0.7385578 0.3425647 0.6446904 0.3146868 0.6442191 0.3559303 0.5487302 0.3424167 0.5432535 0.4041364 0.5487302 0.3424167 0.6442191 0.3559303 0.5432535 0.4041364 0.5179107 0.4034516 0.5233875 0.341732 0.226339 0.8523778 0.2273523 0.6825383 0.2297873 0.6784779 0.6306518 0.8492468 0.6266836 0.8560995 0.6292757 0.6792694 0.6292757 0.6792694 0.6266836 0.8560995 0.425867 0.8522777 0.425867 0.8522777 0.2264902 0.8530322 0.2297873 0.6784779 0.425867 0.8522777 0.4264431 0.9572774 0.2271419 0.9543725 0.425867 0.8522777 0.6266836 0.8560995 0.6247909 0.9592495 0.4265568 0.9790669 0.2579667 0.9751655 0.2271419 0.9543725 0.226339 0.8523778 0.2264902 0.8530322 0.2271419 0.9543725 0.6306518 0.8492468 0.6283979 0.9545297 0.6247909 0.9592495 0.6265852 0.6769588 0.6292757 0.6792694 0.4247219 0.6750283 0.1537675 0.9602916 0.142919 0.8474657 0.1720363 0.825564 0.03626942 0.9666367 0.1537675 0.9602916 0.1761814 0.9793521 0.03626942 0.9666367 0.0134378 0.9910773 0.01412808 0.8320695 0.1509889 0.4822199 0.02371424 0.4784779 -5.82218e-4 0.4640635 0.02371424 0.4784779 0.03117167 0.6007592 -0.005156695 0.6018615 0.1509889 0.4822199 0.1761814 0.4690481 0.1649404 0.5947118 0.129759 0.5932927 0.1649404 0.5947118 0.1720363 0.825564 0.03117167 0.6007592 0.04568475 0.8529382 0.01412808 0.8320695 0.06648117 0.8706126 0.1282805 0.8705699 0.1297748 0.943996 0.1537675 0.9602916 0.03626942 0.9666367 0.05499631 0.9430009 0.04568475 0.8529382 0.06648117 0.8706126 0.05499631 0.9430009 0.142919 0.8474657 0.1537675 0.9602916 0.1297748 0.943996 0.1150655 0.5785822 0.04953765 0.5787482 0.03261154 0.5000551 0.1509889 0.4822199 0.1388948 0.5057442 0.03261154 0.5000551 0.129759 0.5932927 0.03117167 0.6007592 0.04953765 0.5787482 0.03117167 0.6007592 0.02371424 0.4784779 0.03261154 0.5000551 0.7206337 0.9826509 0.7140839 0.9698766 0.7140887 0.9589676 0.8323739 0.4954946 0.8417322 0.4945049 0.8414826 0.541412 0.9961206 0.8784906 0.8795835 0.8812476 0.8795993 0.7561466 0.7206394 0.5145845 0.7206333 0.4784646 0.8242468 0.4732793 0.8241966 0.5180215 0.8242468 0.4732793 0.8323739 0.4954946 0.7140839 0.4868294 0.7206333 0.4784646 0.7206394 0.5145845 0.8823321 0.8801399 1.001529 0.8791696 1.001955 0.9986261 0.8242246 0.9828109 0.7206337 0.9826509 0.7206378 0.9584596 0.8414521 0.9584559 0.8415164 0.9694452 0.8322836 0.9694571 0.8321759 0.9585335 0.8322836 0.9694571 0.8242246 0.9828109 0.8359168 0.9129895 0.8282933 0.9124872 0.8324022 0.8667065 0.831807 0.5486926 0.8316535 0.5667057 0.8242591 0.5900058 0.7141145 0.536258 0.7206404 0.5540694 0.7206414 0.5935543 0.8359168 0.9129895 0.8396576 0.8674456 0.849166 0.8672994 0.7181875 0.9134485 0.7222861 0.8679292 0.7287997 0.8666737 0.8282933 0.9124872 0.7247188 0.9125667 0.7287997 0.8666737 0.8242278 0.5540136 0.8242591 0.5900058 0.7206414 0.5935543 0.831807 0.5486926 0.8413285 0.559816 0.8411744 0.57822 0.7141238 0.5538578 0.7206414 0.5935543 0.7287997 0.8666737 0.7206414 0.5935543 0.8242591 0.5900058 0.8324022 0.8667065 0.8316535 0.5667057 0.8396576 0.8674456 0.8324022 0.8667065 0.8316535 0.5667057 0.8411744 0.57822 0.849166 0.8672994 0.8241845 0.9582681 0.7206378 0.9584596 0.7247188 0.9125667 0.7140887 0.9589676 0.7181875 0.9134485 0.7247188 0.9125667 0.8321759 0.9585335 0.8359168 0.9129895 0.845309 0.9128777 0.8321759 0.9585335 0.8241845 0.9582681 0.8282933 0.9124872 0.8319606 0.5306796 0.8414826 0.541412 0.8413285 0.559816 0.8241966 0.5180215 0.8242278 0.5540136 0.7206404 0.5540694 0.7141052 0.5186582 0.7206394 0.5145845 0.7206404 0.5540694 0.8319606 0.5306796 0.831807 0.5486926 0.8242278 0.5540136</float_array>
          <technique_common>
            <accessor source="#Cube-mesh-map-0-array" count="684" stride="2">
              <param name="S" type="float"/>
              <param name="T" type="float"/>
            </accessor>
          </technique_common>
        </source>
        <vertices id="Cube-mesh-vertices">
          <input semantic="POSITION" source="#Cube-mesh-positions"/>
        </vertices>
        <triangles material="CiscoPPhone-material" count="228">
          <input semantic="VERTEX" source="#Cube-mesh-vertices" offset="0"/>
          <input semantic="NORMAL" source="#Cube-mesh-normals" offset="1"/>
          <input semantic="TEXCOORD" source="#Cube-mesh-map-0" offset="2" set="0"/>
          <p>40 0 0 6 1 1 24 2 2 52 3 3 6 4 4 42 5 5 54 6 6 4 7 7 44 8 8 34 9 9 3 10 10 11 11 11 28 12 12 43 13 13 53 14 14 76 15 15 41 16 16 48 17 17 55 18 18 68 19 19 67 20 20 31 21 21 25 22 22 39 23 23 50 24 24 9 25 25 46 26 26 38 27 27 9 28 28 20 29 29 14 30 30 36 31 31 33 32 32 2 33 33 47 34 34 43 13 35 49 35 36 12 36 37 73 37 38 37 38 39 11 11 40 21 39 41 36 40 42 16 41 43 35 42 44 0 43 45 35 44 46 28 12 47 14 30 48 16 45 49 18 46 50 77 47 51 85 48 52 15 49 53 31 21 54 21 39 55 10 50 56 45 51 57 65 52 58 49 53 59 33 54 60 20 29 61 14 55 62 47 34 63 20 56 64 50 24 65 39 23 66 7 57 67 27 58 68 4 59 69 51 60 70 44 61 71 9 25 72 52 3 73 46 26 74 32 62 75 24 2 76 9 28 77 40 63 78 55 64 79 26 65 80 23 66 81 27 58 82 5 67 83 22 68 84 33 54 85 12 69 86 8 70 87 37 38 88 31 21 89 28 12 90 16 45 91 2 33 92 75 71 93 36 40 94 35 42 95 19 72 96 34 9 97 37 38 98 33 32 99 74 73 100 12 74 101 40 63 102 58 75 103 60 76 104 8 70 105 39 23 106 23 66 107 0 43 108 53 14 109 70 77 110 72 78 111 30 79 112 34 9 113 42 5 114 29 80 115 54 6 116 26 81 117 29 82 118 40 0 119 7 83 120 54 6 121 27 84 122 70 77 123 30 85 124 71 86 125 46 26 126 25 87 127 10 88 128 5 89 129 51 60 130 23 90 131 11 91 132 50 24 133 21 92 134 45 93 135 19 94 136 8 95 137 19 94 138 73 37 139 72 96 140 43 13 141 11 91 142 3 97 143 21 92 144 46 26 145 10 88 146 23 90 147 45 93 148 8 95 149 41 98 150 78 99 151 48 100 152 53 14 153 3 97 154 30 85 155 27 84 156 44 8 157 5 101 158 52 3 159 7 83 160 25 87 161 56 102 162 60 103 163 58 104 164 56 102 165 59 105 166 57 106 167 38 107 168 58 75 169 32 108 170 38 107 171 57 109 172 59 110 173 22 111 174 65 112 175 63 113 176 26 114 177 66 115 178 51 116 179 66 117 180 62 118 181 64 119 182 62 118 183 65 120 184 64 119 185 62 118 186 69 121 187 63 122 188 62 118 189 67 123 190 68 124 191 56 102 192 69 125 193 68 19 194 22 111 195 69 126 196 57 109 197 26 114 198 67 127 199 61 128 200 51 129 201 64 130 202 45 51 203 1 131 204 70 132 205 71 133 206 13 134 207 71 133 208 72 96 209 13 134 210 73 37 211 48 17 212 15 135 213 74 136 214 75 137 215 17 138 216 12 36 217 74 136 218 15 135 219 0 139 220 77 140 221 77 140 222 70 132 223 41 16 224 76 15 225 73 37 226 12 36 227 78 141 228 80 142 229 81 143 230 1 144 231 81 145 232 80 146 233 48 100 234 81 145 235 13 147 236 41 98 237 80 146 238 79 148 239 83 149 240 84 150 241 85 151 242 15 135 243 84 150 244 17 138 245 77 47 246 82 152 247 83 153 248 76 154 249 84 155 250 82 152 251 93 156 252 101 157 253 96 158 254 86 159 255 98 160 256 99 161 257 88 162 258 86 159 259 89 163 260 94 164 261 89 163 262 95 165 263 95 165 264 86 159 265 99 161 266 87 166 267 94 164 268 98 160 269 91 167 270 92 168 271 90 169 272 92 168 273 96 158 274 97 170 275 101 157 276 90 169 277 100 171 278 100 171 279 92 168 280 97 170 281 110 172 282 105 173 283 108 174 284 115 175 285 103 176 286 114 177 287 116 178 288 102 179 289 106 180 290 110 172 291 109 181 292 112 182 293 112 182 294 104 183 295 113 184 296 111 185 297 104 183 298 105 173 299 114 177 300 102 179 301 117 186 302 115 175 303 106 180 304 107 187 305 106 180 306 104 183 307 109 181 308 102 179 309 105 173 310 104 183 311 107 187 312 105 173 313 103 176 314 107 187 315 109 181 316 108 174 317 97 170 318 113 184 319 111 185 320 101 157 321 113 184 322 96 158 323 100 171 324 112 182 325 101 157 326 100 171 327 111 185 328 110 172 329 99 161 330 116 178 331 115 175 332 95 165 333 117 186 334 94 164 335 98 160 336 117 186 337 116 178 338 99 161 339 114 177 340 95 165 341 40 0 342 29 82 343 6 1 344 52 3 345 24 188 346 6 4 347 54 6 348 29 80 349 4 7 350 34 9 351 30 79 352 3 10 353 28 12 354 2 33 355 43 13 356 76 15 357 77 140 358 41 16 359 55 18 360 56 102 361 68 19 362 31 21 363 10 50 364 25 22 365 50 24 366 20 56 367 9 25 368 38 27 369 32 62 370 9 28 371 14 30 372 18 46 373 36 31 374 2 33 375 14 30 376 47 34 377 49 35 378 22 189 379 12 36 380 37 38 381 34 9 382 11 11 383 36 40 384 18 190 385 16 41 386 0 43 387 75 191 388 35 44 389 14 30 390 2 33 391 16 45 392 77 47 393 83 153 394 85 48 395 31 21 396 37 38 397 21 39 398 45 51 399 64 130 400 65 52 401 33 54 402 38 27 403 20 29 404 47 34 405 14 30 406 20 56 407 39 23 408 25 22 409 7 57 410 4 59 411 26 192 412 51 60 413 9 25 414 24 188 415 52 3 416 32 62 417 40 0 418 24 2 419 40 63 420 60 76 421 55 64 422 23 66 423 39 23 424 27 58 425 22 68 426 38 27 427 33 54 428 8 70 429 19 72 430 37 38 431 28 12 432 35 44 433 16 45 434 75 71 435 74 193 436 36 40 437 19 72 438 72 78 439 34 9 440 33 32 441 36 31 442 74 73 443 40 63 444 32 108 445 58 75 446 8 70 447 31 21 448 39 23 449 0 43 450 28 12 451 53 14 452 72 78 453 71 194 454 30 79 455 42 5 456 6 4 457 29 80 458 26 81 459 4 195 460 29 82 461 7 83 462 42 5 463 54 6 464 70 77 465 53 14 466 30 85 467 46 26 468 52 3 469 25 87 470 5 89 471 44 61 472 51 60 473 11 91 474 47 34 475 50 24 476 45 93 477 49 35 478 19 94 479 19 94 480 49 35 481 73 37 482 43 13 483 47 34 484 11 91 485 21 92 486 50 24 487 46 26 488 23 90 489 51 60 490 45 93 491 41 98 492 79 148 493 78 99 494 53 14 495 43 13 496 3 97 497 27 84 498 54 6 499 44 8 500 52 3 501 42 5 502 7 83 503 56 102 504 55 18 505 60 103 506 56 102 507 58 104 508 59 105 509 38 107 510 59 110 511 58 75 512 38 107 513 22 111 514 57 109 515 22 111 516 49 196 517 65 112 518 26 114 519 61 128 520 66 115 521 66 117 522 61 197 523 62 118 524 62 118 525 63 122 526 65 120 527 62 118 528 68 124 529 69 121 530 62 118 531 61 197 532 67 123 533 56 102 534 57 106 535 69 125 536 22 111 537 63 113 538 69 126 539 26 114 540 55 198 541 67 127 542 51 129 543 66 199 544 64 130 545 1 131 546 41 16 547 70 132 548 13 134 549 1 131 550 71 133 551 13 134 552 72 96 553 73 37 554 15 135 555 17 138 556 74 136 557 17 138 558 76 15 559 12 36 560 15 135 561 75 137 562 0 139 563 77 140 564 0 139 565 70 132 566 76 15 567 48 17 568 73 37 569 78 141 570 79 200 571 80 142 572 1 144 573 13 147 574 81 145 575 48 100 576 78 99 577 81 145 578 41 98 579 1 144 580 80 146 581 83 149 582 82 201 583 84 150 584 15 135 585 85 151 586 84 150 587 77 47 588 76 154 589 82 152 590 76 154 591 17 202 592 84 155 593 93 156 594 91 167 595 101 157 596 86 159 597 87 166 598 98 160 599 88 162 600 87 166 601 86 159 602 94 164 603 88 162 604 89 163 605 95 165 606 89 163 607 86 159 608 87 166 609 88 162 610 94 164 611 91 167 612 93 156 613 92 168 614 92 168 615 93 156 616 96 158 617 101 157 618 91 167 619 90 169 620 100 171 621 90 169 622 92 168 623 110 172 624 111 185 625 105 173 626 115 175 627 107 187 628 103 176 629 116 178 630 117 186 631 102 179 632 110 172 633 108 174 634 109 181 635 112 182 636 109 181 637 104 183 638 111 185 639 113 184 640 104 183 641 114 177 642 103 176 643 102 179 644 115 175 645 116 178 646 106 180 647 106 180 648 102 179 649 104 183 650 102 179 651 103 176 652 105 173 653 107 187 654 108 174 655 105 173 656 107 187 657 106 180 658 109 181 659 97 170 660 96 158 661 113 184 662 101 157 663 112 182 664 113 184 665 100 171 666 110 172 667 112 182 668 100 171 669 97 170 670 111 185 671 99 161 672 98 160 673 116 178 674 95 165 675 114 177 676 117 186 677 98 160 678 94 164 679 117 186 680 99 161 681 115 175 682 114 177 683</p>
        </triangles>
      </mesh>
    </geometry>
  </library_geometries>
  <library_visual_scenes>
    <visual_scene id="Scene" name="Scene">
      <node id="CiscoIPPhone" name="CiscoIPPhone" type="NODE">
        <matrix sid="transform">1 0 0 0 0 1 0 0 0 0 1 0 0 0 0 1</matrix>
        <instance_geometry url="#Cube-mesh" name="CiscoIPPhone">
          <bind_material>
            <technique_common>
              <instance_material symbol="CiscoPPhone-material" target="#CiscoPPhone-material">
                <bind_vertex_input semantic="UVMap" input_semantic="TEXCOORD" input_set="0"/>
              </instance_material>
            </technique_common>
          </bind_material>
        </instance_geometry>
      </node>
    </visual_scene>
  </library_visual_scenes>
  <scene>
    <instance_visual_scene url="#Scene"/>
  </scene>
</COLLADA>