<?xml version="1.0" encoding="utf-8"?>
<COLLADA xmlns="http://www.collada.org/2005/11/COLLADASchema" version="1.4.1" xmlns:xsi="http://www.w3.org/2001/XMLSchema-instance">
  <asset>
    <contributor>
      <author>Blender User</author>
      <authoring_tool>Blender 2.90.1 commit date:2020-09-23, commit time:06:43, hash:3e85bb34d0d7</authoring_tool>
    </contributor>
    <created>2020-10-28T08:43:13</created>
    <modified>2020-10-28T08:43:13</modified>
    <unit name="meter" meter="1"/>
    <up_axis>Z_UP</up_axis>
  </asset>
  <library_cameras>
    <camera id="Camera-camera" name="Camera">
      <optics>
        <technique_common>
          <perspective>
            <xfov sid="xfov">39.59775</xfov>
            <aspect_ratio>1.777778</aspect_ratio>
            <znear sid="znear">0.1</znear>
            <zfar sid="zfar">100</zfar>
          </perspective>
        </technique_common>
      </optics>
      <extra>
        <technique profile="blender">
          <shiftx sid="shiftx" type="float">0</shiftx>
          <shifty sid="shifty" type="float">0</shifty>
          <dof_distance sid="dof_distance" type="float">10</dof_distance>
        </technique>
      </extra>
    </camera>
  </library_cameras>
  <library_lights>
    <light id="Light-light" name="Light">
      <technique_common>
        <point>
          <color sid="color">1000 1000 1000</color>
          <constant_attenuation>1</constant_attenuation>
          <linear_attenuation>0</linear_attenuation>
          <quadratic_attenuation>0.00111109</quadratic_attenuation>
        </point>
      </technique_common>
      <extra>
        <technique profile="blender">
          <type sid="type" type="int">0</type>
          <flag sid="flag" type="int">0</flag>
          <mode sid="mode" type="int">1</mode>
          <gamma sid="blender_gamma" type="float">1</gamma>
          <red sid="red" type="float">1</red>
          <green sid="green" type="float">1</green>
          <blue sid="blue" type="float">1</blue>
          <shadow_r sid="blender_shadow_r" type="float">0</shadow_r>
          <shadow_g sid="blender_shadow_g" type="float">0</shadow_g>
          <shadow_b sid="blender_shadow_b" type="float">0</shadow_b>
          <energy sid="blender_energy" type="float">1000</energy>
          <dist sid="blender_dist" type="float">29.99998</dist>
          <spotsize sid="spotsize" type="float">75</spotsize>
          <spotblend sid="spotblend" type="float">0.15</spotblend>
          <att1 sid="att1" type="float">0</att1>
          <att2 sid="att2" type="float">1</att2>
          <falloff_type sid="falloff_type" type="int">2</falloff_type>
          <clipsta sid="clipsta" type="float">0.04999995</clipsta>
          <clipend sid="clipend" type="float">30.002</clipend>
          <bias sid="bias" type="float">1</bias>
          <soft sid="soft" type="float">3</soft>
          <bufsize sid="bufsize" type="int">2880</bufsize>
          <samp sid="samp" type="int">3</samp>
          <buffers sid="buffers" type="int">1</buffers>
          <area_shape sid="area_shape" type="int">1</area_shape>
          <area_size sid="area_size" type="float">0.1</area_size>
          <area_sizey sid="area_sizey" type="float">0.1</area_sizey>
          <area_sizez sid="area_sizez" type="float">1</area_sizez>
        </technique>
      </extra>
    </light>
  </library_lights>
  <library_effects>
    <effect id="Black-effect">
      <profile_COMMON>
        <technique sid="common">
          <lambert>
            <emission>
              <color sid="emission">0 0 0 1</color>
            </emission>
            <diffuse>
              <color sid="diffuse">0 0 0 1</color>
            </diffuse>
            <index_of_refraction>
              <float sid="ior">1.45</float>
            </index_of_refraction>
          </lambert>
        </technique>
      </profile_COMMON>
    </effect>
    <effect id="Video-effect">
      <profile_COMMON>
        <technique sid="common">
          <lambert>
            <emission>
              <color sid="emission">0 0.01685923 0.07658018 1</color>
            </emission>
            <diffuse>
              <color sid="diffuse">0.8 0.8 0.8 1</color>
            </diffuse>
            <index_of_refraction>
              <float sid="ior">1.45</float>
            </index_of_refraction>
          </lambert>
        </technique>
      </profile_COMMON>
    </effect>
  </library_effects>
  <library_images/>
  <library_materials>
    <material id="Black-material" name="Black">
      <instance_effect url="#Black-effect"/>
    </material>
    <material id="Video-material" name="Video">
      <instance_effect url="#Video-effect"/>
    </material>
  </library_materials>
  <library_geometries>
    <geometry id="TV-mesh" name="TV">
      <mesh>
        <source id="TV-mesh-positions">
          <float_array id="TV-mesh-positions-array" count="153">-0.9313884 0.007524251 0.001604378 -0.9313884 0.01010632 1.100681 -0.894012 0.04773211 0.06723552 -0.894012 0.04773211 1.05933 0.9313884 0.007524251 0.001604378 0.9313884 0.01010632 1.100681 0.894012 0.04773211 0.06723552 0.894012 0.04773211 1.05933 -0.9313884 0.04773211 1.100681 -0.9313884 0.04773211 0.001604378 0.9313884 0.04773211 0.001604378 0.9313884 0.04773211 1.100681 -0.894012 0.01765048 0.06723552 -0.894012 0.01765048 1.05933 0.894012 0.01765048 0.06723552 0.894012 0.01765048 1.05933 0 0.04773211 -0.04793125 0 0.04773211 1.100681 0 -0.07140767 -0.04793125 0 0.01084446 1.100681 0 0.04773211 1.05933 0 0.04773211 0.06723552 0 0.01765048 1.05933 0 0.01765048 0.06723552 0.5 0.04773211 1.100681 0.5 -0.07140767 -0.03491342 0.447006 0.04773211 1.05933 0.447006 0.01765048 1.05933 0.5 0.04773211 -0.03491342 0.5 0.01084446 1.100681 0.447006 0.04773211 0.06723552 0.447006 0.01765048 0.06723552 -0.5 0.04773211 -0.03491342 -0.5 0.01084446 1.100681 -0.447006 0.04773211 0.06723552 -0.447006 0.01765048 0.06723552 -0.5 0.04773211 1.100681 -0.5 -0.07140767 -0.03491342 -0.447006 0.04773211 1.05933 -0.447006 0.01765048 1.05933 -0.9313884 0.01006191 0.5511429 -0.9313884 0.04773211 0.5511429 0.9313884 0.04773211 0.5511429 0.9313884 0.01006191 0.5511429 -0.894012 0.04773211 0.5632827 0.894012 0.04773211 0.5632827 -0.894012 0.01765048 0.5632827 0.894012 0.01765048 0.5632827 0 -0.06673032 0.5263751 0.5 -0.06673032 0.5422916 -0.5 -0.06673032 0.5422916</float_array>
          <technique_common>
            <accessor source="#TV-mesh-positions-array" count="51" stride="3">
              <param name="X" type="float"/>
              <param name="Y" type="float"/>
              <param name="Z" type="float"/>
            </accessor>
          </technique_common>
        </source>
        <source id="TV-mesh-normals">
          <float_array id="TV-mesh-normals-array" count="105">-1 -3.95105e-7 0 0 1 0 1 0 0 -0.03638684 -0.9945087 0.09812551 -0.1371822 -0.9896225 0.04275989 -0.08655124 -0.9936634 0.07170677 0.0843501 0 -0.9964362 0 0 1 0 1 0 0 1 0 -1 0 0 0 0 -1 -0.02602678 0 -0.9996613 0.08655124 -0.9936634 0.07170677 0 -0.9907261 0.1358752 0 -0.9975567 0.06986165 0.1371822 -0.9896225 0.04275989 0.0363869 -0.9945087 0.09812551 2.65374e-7 0 1 0 1 2.08833e-7 0.02602678 0 -0.9996613 -0.0843501 0 -0.9964362 0 1 -1.25526e-7 -0.08667898 -0.9962036 0.008084177 0 -0.9999669 0.008144021 0.1776126 -0.9840786 0.006561338 0.08667898 -0.9962036 0.008084177 -0.1776126 -0.9840786 0.006561338 0.00171113 -0.9999986 8.0775e-5 0.0843501 0 -0.9964362 -2.65374e-7 0 1 -0.02602678 0 -0.9996613 -0.00171113 -0.9999985 8.0775e-5 0.02602678 0 -0.9996613 -0.0843501 0 -0.9964362</float_array>
          <technique_common>
            <accessor source="#TV-mesh-normals-array" count="35" stride="3">
              <param name="X" type="float"/>
              <param name="Y" type="float"/>
              <param name="Z" type="float"/>
            </accessor>
          </technique_common>
        </source>
        <source id="TV-mesh-map-0">
          <float_array id="TV-mesh-map-0-array" count="540">0.625 0 0.5 0.25 0.5 0 0.9999285 1 7.1515e-5 7.14484e-5 0.9999285 7.15817e-5 0.5 0.5 0.625 0.75 0.5 0.75 0.625 0.9375 0.5 1 0.5 0.9375 0.3125 0.5 0.375 0.75 0.3125 0.75 0.875 0.5 0.8125 0.75 0.8125 0.5 0.3985529 0.2632485 0.5 0.25 0.5000001 0.2632485 0.3985529 0.4867515 0.375 0.4375 0.3985529 0.4308757 0.6014472 0.2632485 0.625 0.3125 0.6014472 0.3191243 0.6014472 0.4867516 0.5 0.5 0.5 0.4867516 0.3985529 0.4867515 0.5 0.4867515 0.5 0.4867516 0.6014472 0.4867516 0.6014472 0.4308758 0.6014472 0.4308758 0.3985529 0.2632485 0.3985529 0.3191242 0.3985529 0.3191242 0.6014472 0.2632485 0.5000001 0.2632485 0.5000001 0.2632485 0.3985529 0.375 0.3985529 0.4308757 0.3985529 0.4308757 0.6014472 0.375 0.6014472 0.3191243 0.6014472 0.3191243 0.6014472 0.4308758 0.625 0.375 0.625 0.4375 0.3985529 0.3191242 0.375 0.375 0.375 0.3125 0.75 0.5 0.6875 0.75 0.6875 0.5 0.25 0.5 0.1875 0.75 0.1875 0.5 0.5 0.8125 0.625 0.875 0.5 0.875 0.5 0.75 0.625 0.8125 0.5 0.8125 0.625 0.5 0.6875 0.75 0.625 0.75 0.6014472 0.4867516 0.625 0.4375 0.625 0.5 0.3985529 0.4308757 0.3985529 0.4867515 0.3985529 0.4867515 0.6014472 0.4308758 0.6014472 0.375 0.6014472 0.375 0.3985529 0.4308757 0.375 0.375 0.3985529 0.375 0.3125 0.5 0.25 0.75 0.25 0.5 0.1875 0.5 0.125 0.75 0.125 0.5 0.3985529 0.2632485 0.375 0.3125 0.375 0.25 0.6014472 0.3191243 0.6014472 0.2632485 0.6014472 0.2632485 0.3985529 0.3191242 0.3985529 0.375 0.3985529 0.375 0.6014472 0.3191243 0.625 0.375 0.6014472 0.375 0.8125 0.5 0.75 0.75 0.75 0.5 0.625 0.875 0.5 0.9375 0.5 0.875 0.5 0.875 0.375 0.9375 0.375 0.875 0.375 0.75 0.5 0.8125 0.375 0.8125 0.375 0.8125 0.5 0.875 0.375 0.875 0.5000001 0.2632485 0.3985529 0.2632485 0.3985529 0.2632485 0.5 0.4867516 0.6014472 0.4867516 0.6014472 0.4867516 0.3985529 0.4867515 0.5 0.5 0.375 0.5 0.6014472 0.2632485 0.5 0.25 0.625 0.25 0.5 0.9375 0.375 1 0.375 0.9375 0.375 0.5 0.5 0.75 0.375 0.75 0.5 0 0.375 0.25 0.375 0 0.625 0 0.625 0.25 0.5 0.25 0.9999285 1 7.1508e-5 1 7.1515e-5 7.14484e-5 0.5 0.5 0.625 0.5 0.625 0.75 0.625 0.9375 0.625 1 0.5 1 0.3125 0.5 0.375 0.5 0.375 0.75 0.875 0.5 0.875 0.75 0.8125 0.75 0.3985529 0.2632485 0.375 0.25 0.5 0.25 0.3985529 0.4867515 0.375 0.5 0.375 0.4375 0.6014472 0.2632485 0.625 0.25 0.625 0.3125 0.6014472 0.4867516 0.625 0.5 0.5 0.5 0.3985529 0.4867515 0.3985529 0.4867515 0.5 0.4867515 0.6014472 0.4867516 0.6014472 0.4867516 0.6014472 0.4308758 0.3985529 0.2632485 0.3985529 0.2632485 0.3985529 0.3191242 0.6014472 0.2632485 0.6014472 0.2632485 0.5000001 0.2632485 0.3985529 0.375 0.3985529 0.375 0.3985529 0.4308757 0.6014472 0.375 0.6014472 0.375 0.6014472 0.3191243 0.6014472 0.4308758 0.6014472 0.375 0.625 0.375 0.3985529 0.3191242 0.3985529 0.375 0.375 0.375 0.75 0.5 0.75 0.75 0.6875 0.75 0.25 0.5 0.25 0.75 0.1875 0.75 0.5 0.8125 0.625 0.8125 0.625 0.875 0.5 0.75 0.625 0.75 0.625 0.8125 0.625 0.5 0.6875 0.5 0.6875 0.75 0.6014472 0.4867516 0.6014472 0.4308758 0.625 0.4375 0.3985529 0.4308757 0.3985529 0.4308757 0.3985529 0.4867515 0.6014472 0.4308758 0.6014472 0.4308758 0.6014472 0.375 0.3985529 0.4308757 0.375 0.4375 0.375 0.375 0.3125 0.5 0.3125 0.75 0.25 0.75 0.1875 0.5 0.1875 0.75 0.125 0.75 0.3985529 0.2632485 0.3985529 0.3191242 0.375 0.3125 0.6014472 0.3191243 0.6014472 0.3191243 0.6014472 0.2632485 0.3985529 0.3191242 0.3985529 0.3191242 0.3985529 0.375 0.6014472 0.3191243 0.625 0.3125 0.625 0.375 0.8125 0.5 0.8125 0.75 0.75 0.75 0.625 0.875 0.625 0.9375 0.5 0.9375 0.5 0.875 0.5 0.9375 0.375 0.9375 0.375 0.75 0.5 0.75 0.5 0.8125 0.375 0.8125 0.5 0.8125 0.5 0.875 0.5000001 0.2632485 0.5000001 0.2632485 0.3985529 0.2632485 0.5 0.4867516 0.5 0.4867515 0.6014472 0.4867516 0.3985529 0.4867515 0.5 0.4867516 0.5 0.5 0.6014472 0.2632485 0.5000001 0.2632485 0.5 0.25 0.5 0.9375 0.5 1 0.375 1 0.375 0.5 0.5 0.5 0.5 0.75 0.5 0 0.5 0.25 0.375 0.25</float_array>
          <technique_common>
            <accessor source="#TV-mesh-map-0-array" count="270" stride="2">
              <param name="S" type="float"/>
              <param name="T" type="float"/>
            </accessor>
          </technique_common>
        </source>
        <vertices id="TV-mesh-vertices">
          <input semantic="POSITION" source="#TV-mesh-positions"/>
        </vertices>
        <triangles material="Black-material" count="90">
          <input semantic="VERTEX" source="#TV-mesh-vertices" offset="0"/>
          <input semantic="NORMAL" source="#TV-mesh-normals" offset="1"/>
          <input semantic="TEXCOORD" source="#TV-mesh-map-0" offset="2" set="0"/>
          <p>1 0 0 41 0 1 40 0 2 13 1 3 14 1 4 12 1 5 42 2 6 5 2 7 43 2 8 33 3 9 40 4 10 50 5 11 28 6 12 4 6 13 25 6 14 8 7 15 33 7 16 36 7 17 2 1 18 41 1 19 44 1 20 6 8 21 28 8 22 30 8 23 3 9 24 36 9 25 38 9 26 7 1 27 42 1 28 45 1 29 6 10 30 47 10 31 45 10 32 7 11 33 27 11 34 26 11 35 2 7 36 35 7 37 34 7 38 3 2 39 46 2 40 44 2 41 21 7 42 31 7 43 30 7 44 20 11 45 39 11 46 38 11 47 26 1 48 17 1 49 24 1 50 34 1 51 16 1 52 32 1 53 17 7 54 29 7 55 24 7 56 16 12 57 37 12 58 32 12 59 49 13 60 19 14 61 48 15 62 43 16 63 29 17 64 49 13 65 11 18 66 29 18 67 5 18 68 7 19 69 24 19 70 11 19 71 30 7 72 14 7 73 6 7 74 26 11 75 22 11 76 20 11 77 30 1 78 16 1 79 21 1 80 28 20 81 18 20 82 16 20 83 32 21 84 0 21 85 9 21 86 2 22 87 32 22 88 9 22 89 38 11 90 13 11 91 3 11 92 34 7 93 23 7 94 21 7 95 38 1 96 17 1 97 20 1 98 36 7 99 19 7 100 17 7 101 19 14 102 50 5 103 48 15 104 48 15 105 37 23 106 18 24 107 4 25 108 49 13 109 25 26 110 25 26 111 48 15 112 18 24 113 44 2 114 12 2 115 2 2 116 45 10 117 15 10 118 7 10 119 6 1 120 42 1 121 10 1 122 3 1 123 41 1 124 8 1 125 50 5 126 0 27 127 37 23 128 10 2 129 43 2 130 4 2 131 40 10 132 9 10 133 0 10 134 1 10 135 8 10 136 41 10 137 13 1 138 15 1 139 14 1 140 42 2 141 11 2 142 5 2 143 33 3 144 1 28 145 40 4 146 28 29 147 10 29 148 4 29 149 8 30 150 1 30 151 33 30 152 2 1 153 9 1 154 41 1 155 6 22 156 10 22 157 28 22 158 3 19 159 8 19 160 36 19 161 7 1 162 11 1 163 42 1 164 6 10 165 14 10 166 47 10 167 7 11 168 15 11 169 27 11 170 2 7 171 12 7 172 35 7 173 3 2 174 13 2 175 46 2 176 21 7 177 23 7 178 31 7 179 20 11 180 22 11 181 39 11 182 26 1 183 20 1 184 17 1 185 34 1 186 21 1 187 16 1 188 17 7 189 19 7 190 29 7 191 16 31 192 18 31 193 37 31 194 49 13 195 29 17 196 19 14 197 43 16 198 5 32 199 29 17 200 11 7 201 24 7 202 29 7 203 7 9 204 26 9 205 24 9 206 30 7 207 31 7 208 14 7 209 26 11 210 27 11 211 22 11 212 30 1 213 28 1 214 16 1 215 28 33 216 25 33 217 18 33 218 32 34 219 37 34 220 0 34 221 2 8 222 34 8 223 32 8 224 38 11 225 39 11 226 13 11 227 34 7 228 35 7 229 23 7 230 38 1 231 36 1 232 17 1 233 36 7 234 33 7 235 19 7 236 19 14 237 33 3 238 50 5 239 48 15 240 50 5 241 37 23 242 4 25 243 43 16 244 49 13 245 25 26 246 49 13 247 48 15 248 44 2 249 46 2 250 12 2 251 45 10 252 47 10 253 15 10 254 6 1 255 45 1 256 42 1 257 3 1 258 44 1 259 41 1 260 50 5 261 40 4 262 0 27 263 10 2 264 42 2 265 43 2 266 40 10 267 41 10 268 9 10 269</p>
        </triangles>
      </mesh>
    </geometry>
    <geometry id="Computer-mesh" name="Computer">
      <mesh>
        <source id="Computer-mesh-positions">
          <float_array id="Computer-mesh-positions-array" count="84">-0.0915293 -0.2063757 0.4127516 -0.0915293 -0.2063757 0 0.0718171 0.2063757 0.4127516 0.0718171 0.2063757 0 -0.01334488 0.2371548 0.3890208 0.06935578 0.2356745 0.3890208 0.07181704 -0.2063757 0.4127516 0.07181704 -0.2063757 0 0.06935578 0.2356745 0.4120143 -0.01271688 0.2063757 0.4127516 -0.01334488 0.2371548 0.4120143 -0.01271688 0.2063757 0 -0.09152925 0.2375589 0.4127516 -0.09152925 0.2375589 0 -0.01271688 0.2375589 0 -0.01271688 0.2375589 0.4127516 -0.01334488 0.2316061 0.4120143 -0.01334488 0.2316061 0.3890208 0.0711891 0.2316061 0.3890208 0.0711891 0.2316061 0.4120143 0.06512093 0.2316061 0.4120143 0.06512093 0.2316061 0.3890208 0.06512093 0.2371548 0.3890208 0.06512093 0.2371548 0.4120143 0.06512093 0.2052738 0.4120143 0.0711891 0.2052738 0.4120143 0.0711891 0.2052738 0.3890208 0.06512093 0.2052738 0.3890208</float_array>
          <technique_common>
            <accessor source="#Computer-mesh-positions-array" count="28" stride="3">
              <param name="X" type="float"/>
              <param name="Y" type="float"/>
              <param name="Z" type="float"/>
            </accessor>
          </technique_common>
        </source>
        <source id="Computer-mesh-normals">
          <float_array id="Computer-mesh-normals-array" count="57">0 0 1 1 0 0 0 0 -1 0 1 0 -1 0 0 0 -1 0 -0.6756549 -0.7372181 0 -0.9776787 -0.2101059 0 -0.6756544 -0.7372185 0 8.51798e-7 0 1 1 -1.44718e-7 0 -0.1673462 -0.9858982 0 -0.1673459 -0.9858983 0 -0.9776788 -0.2101051 0 -1 0 0 1 0 0 1 0 0 1 0 0 -1.98173e-5 0 1</float_array>
          <technique_common>
            <accessor source="#Computer-mesh-normals-array" count="19" stride="3">
              <param name="X" type="float"/>
              <param name="Y" type="float"/>
              <param name="Z" type="float"/>
            </accessor>
          </technique_common>
        </source>
        <source id="Computer-mesh-map-0">
          <float_array id="Computer-mesh-map-0-array" count="264">0.625 0.5511246 0.875 0.75 0.625 0.75 0.625 0.75 0.375 1 0.375 0.75 0.375 0.5511246 0.375 0.7357241 0.375 0.7357241 0.375 0.5511246 0.125 0.75 0.125 0.5511246 0.625 0.5511246 0.375 0.75 0.375 0.5511246 0.625 0.5 0.375 0.5 0.375 0.5 0.625 0.75 0.625 0.7357241 0.625 0.7357241 0.625 0 0.375 0.1988753 0.375 0 0.375 0.75 0.625 0.75 0.625 0.75 0.625 0.5 0.375 0.5511246 0.375 0.5 0.625 0.5511246 0.625 0.5 0.625 0.5 0.375 0.5511246 0.375 0.5 0.375 0.5511246 0.375 0.5511246 0.625 0.5511246 0.625 0.5511246 0.375 0.75 0.625 0.7357241 0.375 0.7357241 0.625 0.75 0.625 0.7357241 0.625 0.7357241 0.625 0.7357241 0.625 0.5511246 0.625 0.5511246 0.375 0.7357241 0.625 0.5511246 0.375 0.5511246 0.625 0.5511246 0.375 0.7357241 0.375 0.5511246 0.375 0.75 0.375 0.7357241 0.375 0.75 0.375 0.7357241 0.375 0.75 0.375 0.75 0.375 0.75 0.625 0.75 0.625 0.75 0.625 0.7357241 0.375 0.7357241 0.375 0.7357241 0.625 0.5511246 0.875 0.5511246 0.875 0.75 0.625 0.75 0.625 1 0.375 1 0.375 0.5511246 0.375 0.5511246 0.375 0.7357241 0.375 0.5511246 0.375 0.75 0.125 0.75 0.625 0.5511246 0.625 0.75 0.375 0.75 0.625 0.5 0.625 0.5 0.375 0.5 0.625 0.75 0.625 0.75 0.625 0.7357241 0.625 0 0.625 0.1988753 0.375 0.1988753 0.375 0.75 0.375 0.75 0.625 0.75 0.625 0.5 0.625 0.5511246 0.375 0.5511246 0.625 0.5511246 0.625 0.5511246 0.625 0.5 0.375 0.5511246 0.375 0.5 0.375 0.5 0.375 0.5511246 0.375 0.5511246 0.625 0.5511246 0.375 0.75 0.625 0.75 0.625 0.7357241 0.625 0.75 0.625 0.75 0.625 0.7357241 0.625 0.7357241 0.625 0.7357241 0.625 0.5511246 0.375 0.7357241 0.625 0.7357241 0.625 0.5511246 0.625 0.5511246 0.625 0.7357241 0.375 0.7357241 0.375 0.75 0.375 0.7357241 0.375 0.7357241 0.375 0.7357241 0.375 0.7357241 0.375 0.75 0.375 0.75 0.375 0.75 0.625 0.75 0.625 0.7357241 0.625 0.7357241 0.375 0.7357241</float_array>
          <technique_common>
            <accessor source="#Computer-mesh-map-0-array" count="132" stride="2">
              <param name="S" type="float"/>
              <param name="T" type="float"/>
            </accessor>
          </technique_common>
        </source>
        <vertices id="Computer-mesh-vertices">
          <input semantic="POSITION" source="#Computer-mesh-positions"/>
        </vertices>
        <triangles material="Video-material" count="24">
          <input semantic="VERTEX" source="#Computer-mesh-vertices" offset="0"/>
          <input semantic="NORMAL" source="#Computer-mesh-normals" offset="1"/>
          <input semantic="TEXCOORD" source="#Computer-mesh-map-0" offset="2" set="0"/>
          <p>4 0 6 21 0 7 22 0 8 19 2 18 24 2 19 20 2 20 5 6 24 19 7 25 8 8 26 5 6 39 23 11 40 22 12 41 8 2 42 20 2 43 23 2 44 23 2 45 16 2 46 10 2 47 22 12 48 10 5 49 4 5 50 16 3 51 21 3 52 17 3 53 5 0 54 21 0 55 18 0 56 21 0 57 26 0 58 18 0 59 18 13 60 25 14 61 19 7 62 20 15 63 27 15 64 21 15 65 4 0 72 17 0 73 21 0 74 19 2 84 25 2 85 24 2 86 5 6 90 18 13 91 19 7 92 5 6 105 8 8 106 23 11 107 8 2 108 19 2 109 20 2 110 23 2 111 20 2 112 16 2 113 22 12 114 23 11 115 10 5 116 16 3 117 20 3 118 21 3 119 5 18 120 22 18 121 21 18 122 21 0 123 27 0 124 26 0 125 18 13 126 26 14 127 25 14 128 20 15 129 24 15 130 27 15 131</p>
        </triangles>
        <triangles material="Black-material" count="20">
          <input semantic="VERTEX" source="#Computer-mesh-vertices" offset="0"/>
          <input semantic="NORMAL" source="#Computer-mesh-normals" offset="1"/>
          <input semantic="TEXCOORD" source="#Computer-mesh-map-0" offset="2" set="0"/>
          <p>9 0 0 6 0 1 2 0 2 2 1 3 7 1 4 3 1 5 11 2 9 7 2 10 1 2 11 9 3 12 3 3 13 11 3 14 0 4 15 13 4 16 1 4 17 6 5 21 1 5 22 7 5 23 12 3 27 14 3 28 13 3 29 9 9 30 12 9 31 0 9 32 11 2 33 13 2 34 14 2 35 11 10 36 15 10 37 9 10 38 9 0 66 0 0 67 6 0 68 2 16 69 6 16 70 7 16 71 11 2 75 3 2 76 7 2 77 9 3 78 2 3 79 3 3 80 0 4 81 12 4 82 13 4 83 6 5 87 0 5 88 1 5 89 12 3 93 15 3 94 14 3 95 9 0 96 15 0 97 12 0 98 11 2 99 1 2 100 13 2 101 11 17 102 14 17 103 15 17 104</p>
        </triangles>
      </mesh>
    </geometry>
  </library_geometries>
  <library_visual_scenes>
    <visual_scene id="Scene" name="Scene">
      <node id="TV" name="TV" type="NODE">
        <matrix sid="transform">1 0 0 0 0 1 0 0 0 0 1 0 0 0 0 1</matrix>
        <instance_geometry url="#TV-mesh" name="TV">
          <bind_material>
            <technique_common>
              <instance_material symbol="Black-material" target="#Black-material">
                <bind_vertex_input semantic="UVMap" input_semantic="TEXCOORD" input_set="0"/>
              </instance_material>
            </technique_common>
          </bind_material>
        </instance_geometry>
      </node>
      <node id="Camera" name="Camera" type="NODE">
        <matrix sid="transform">0.6859207 -0.3240135 0.6515582 7.358891 0.7276763 0.3054208 -0.6141704 -6.925791 0 0.8953956 0.4452714 4.958309 0 0 0 1</matrix>
        <instance_camera url="#Camera-camera"/>
      </node>
      <node id="Light" name="Light" type="NODE">
        <matrix sid="transform">-0.2908646 -0.7711008 0.5663932 4.076245 0.9551712 -0.1998834 0.2183912 1.005454 -0.05518906 0.6045247 0.7946723 5.903862 0 0 0 1</matrix>
        <instance_light url="#Light-light"/>
      </node>
      <node id="Computer" name="Computer" type="NODE">
        <matrix sid="transform">1 0 0 0 0 1 0 0 0 0 1 0 0 0 0 1</matrix>
        <instance_geometry url="#Computer-mesh" name="Computer">
          <bind_material>
            <technique_common>
              <instance_material symbol="Video-material" target="#Video-material">
                <bind_vertex_input semantic="UVMap" input_semantic="TEXCOORD" input_set="0"/>
              </instance_material>
              <instance_material symbol="Black-material" target="#Black-material">
                <bind_vertex_input semantic="UVMap" input_semantic="TEXCOORD" input_set="0"/>
              </instance_material>
            </technique_common>
          </bind_material>
        </instance_geometry>
      </node>
    </visual_scene>
  </library_visual_scenes>
  <scene>
    <instance_visual_scene url="#Scene"/>
  </scene>
</COLLADA>