<?xml version="1.0" encoding="utf-8"?>
<COLLADA xmlns="http://www.collada.org/2005/11/COLLADASchema" version="1.4.1" xmlns:xsi="http://www.w3.org/2001/XMLSchema-instance">
  <asset>
    <contributor>
      <author>Blender User</author>
      <authoring_tool>Blender 2.90.1 commit date:2020-09-23, commit time:06:43, hash:3e85bb34d0d7</authoring_tool>
    </contributor>
    <created>2020-11-13T12:07:33</created>
    <modified>2020-11-13T12:07:33</modified>
    <unit name="meter" meter="1"/>
    <up_axis>Z_UP</up_axis>
  </asset>
  <library_effects>
    <effect id="Frame-effect">
      <profile_COMMON>
        <technique sid="common">
          <lambert>
            <emission>
              <color sid="emission">0 0 0 1</color>
            </emission>
            <diffuse>
              <color sid="diffuse">0 0 0 1</color>
            </diffuse>
            <index_of_refraction>
              <float sid="ior">1.45</float>
            </index_of_refraction>
          </lambert>
        </technique>
      </profile_COMMON>
    </effect>
    <effect id="Glass-effect">
      <profile_COMMON>
        <technique sid="common">
          <lambert>
            <emission>
              <color sid="emission">0 0 0 1</color>
            </emission>
            <diffuse>
              <color sid="diffuse">0.8 0.8 0.8 1</color>
            </diffuse>
            <transparent opaque="A_ONE">
              <color sid="alpha">0 0 0 0.5390071</color>
            </transparent>
            <index_of_refraction>
              <float sid="ior">1.45</float>
            </index_of_refraction>
          </lambert>
        </technique>
      </profile_COMMON>
    </effect>
    <effect id="Border-effect">
      <profile_COMMON>
        <technique sid="common">
          <lambert>
            <emission>
              <color sid="emission">0 0 0 1</color>
            </emission>
            <diffuse>
              <color sid="diffuse">0.8 0.8 0.8 1</color>
            </diffuse>
            <index_of_refraction>
              <float sid="ior">1.45</float>
            </index_of_refraction>
          </lambert>
        </technique>
      </profile_COMMON>
    </effect>
  </library_effects>
  <library_images/>
  <library_materials>
    <material id="Frame-material" name="Frame">
      <instance_effect url="#Frame-effect"/>
    </material>
    <material id="Glass-material" name="Glass">
      <instance_effect url="#Glass-effect"/>
    </material>
    <material id="Border-material" name="Border">
      <instance_effect url="#Border-effect"/>
    </material>
  </library_materials>
  <library_geometries>
    <geometry id="Cube-mesh" name="Cube">
      <mesh>
        <source id="Cube-mesh-positions">
          <float_array id="Cube-mesh-positions-array" count="60">-0.4509909 0.0100001 0.7009909 0.4509909 0.0100001 0.7009909 0.5 3.35276e-7 0.75 0.5 0 0 -0.4509909 0.009999811 0.04900908 0.4509909 0.009999811 0.04900908 -0.5 3.35276e-7 0.75 -0.5 0 0 0.5 0.04999983 0 -0.5 0.04999983 0 0.5 0.05000013 0.75 -0.5 0.05000013 0.75 0.4509909 0.04999983 0.04900908 -0.4509909 0.04999983 0.04900908 0.4509909 0.05000013 0.7009909 -0.4509909 0.05000013 0.7009909 -0.4509909 0.04064458 0.7009909 0.4509909 0.04064458 0.7009909 -0.4509909 0.04064428 0.04900908 0.4509909 0.04064428 0.04900908</float_array>
          <technique_common>
            <accessor source="#Cube-mesh-positions-array" count="20" stride="3">
              <param name="X" type="float"/>
              <param name="Y" type="float"/>
              <param name="Z" type="float"/>
            </accessor>
          </technique_common>
        </source>
        <source id="Cube-mesh-normals">
          <float_array id="Cube-mesh-normals-array" count="30">0 0 1 -1 0 0 0 0 -1 1 0 0 0 1 -4.79577e-7 0 1 -4.47296e-7 0 1 -3.99648e-7 0 1.86265e-7 1 0 1 -4.46597e-7 0 1 -4.49764e-7</float_array>
          <technique_common>
            <accessor source="#Cube-mesh-normals-array" count="10" stride="3">
              <param name="X" type="float"/>
              <param name="Y" type="float"/>
              <param name="Z" type="float"/>
            </accessor>
          </technique_common>
        </source>
        <source id="Cube-mesh-map-0">
          <float_array id="Cube-mesh-map-0-array" count="112">0.625 0.5 0.875 0.5 0.875 0.75 0.625 0.75 0.375 0 0.625 0 0.625 0.25 0.375 0.25 0.125 0.5 0.375 0.5 0.375 0.75 0.125 0.75 0.375 0.5 0.625 0.5 0.625 0.75 0.375 0.75 0.6086636 0.4877477 0.3913364 0.4877477 0.3913364 0.4877477 0.6086636 0.4877477 0.3913363 0.2622523 0.3913364 0.4877477 0.375 0.5 0.375 0.25 0.3913364 0.4877477 0.6086636 0.4877477 0.625 0.5 0.375 0.5 0.6086636 0.2622523 0.3913363 0.2622523 0.375 0.25 0.625 0.25 0.6086636 0.4877477 0.6086636 0.2622523 0.625 0.25 0.625 0.5 0.3913364 0.4877477 0.3913363 0.2622523 0.3913363 0.2622523 0.3913364 0.4877477 0.6086636 0.2622523 0.6086636 0.4877477 0.3913364 0.4877477 0.3913363 0.2622523 0.3913363 0.2622523 0.6086636 0.2622523 0.6086636 0.2622523 0.3913363 0.2622523 0.6086636 0.2622523 0.6086636 0.4877477 0.6086636 0.4877477 0.6086636 0.2622523 0.6086636 0.2622523 0.6086636 0.4877477 0.3913364 0.4877477 0.3913363 0.2622523</float_array>
          <technique_common>
            <accessor source="#Cube-mesh-map-0-array" count="56" stride="2">
              <param name="S" type="float"/>
              <param name="T" type="float"/>
            </accessor>
          </technique_common>
        </source>
        <vertices id="Cube-mesh-vertices">
          <input semantic="POSITION" source="#Cube-mesh-positions"/>
        </vertices>
        <polylist material="Frame-material" count="12">
          <input semantic="VERTEX" source="#Cube-mesh-vertices" offset="0"/>
          <input semantic="NORMAL" source="#Cube-mesh-normals" offset="1"/>
          <input semantic="TEXCOORD" source="#Cube-mesh-map-0" offset="2" set="0"/>
          <vcount>4 4 4 4 4 4 4 4 4 4 4 4 </vcount>
          <p>10 0 0 11 0 1 6 0 2 2 0 3 7 1 4 6 1 5 11 1 6 9 1 7 9 2 8 8 2 9 3 2 10 7 2 11 8 3 12 10 3 13 2 3 14 3 3 15 14 1 16 12 1 17 5 1 18 1 1 19 13 4 20 12 4 21 8 4 22 9 4 23 12 5 24 14 5 25 10 5 26 8 5 27 15 5 28 13 5 29 9 5 30 11 5 31 14 6 32 15 6 33 11 6 34 10 6 35 12 7 36 13 7 37 4 7 38 5 7 39 13 3 44 15 3 45 0 3 46 4 3 47 15 2 48 14 2 49 1 2 50 0 2 51</p>
        </polylist>
        <polylist material="Glass-material" count="1">
          <input semantic="VERTEX" source="#Cube-mesh-vertices" offset="0"/>
          <input semantic="NORMAL" source="#Cube-mesh-normals" offset="1"/>
          <input semantic="TEXCOORD" source="#Cube-mesh-map-0" offset="2" set="0"/>
          <vcount>4 </vcount>
          <p>16 9 52 17 9 53 19 9 54 18 9 55</p>
        </polylist>
        <polylist material="Border-material" count="1">
          <input semantic="VERTEX" source="#Cube-mesh-vertices" offset="0"/>
          <input semantic="NORMAL" source="#Cube-mesh-normals" offset="1"/>
          <input semantic="TEXCOORD" source="#Cube-mesh-map-0" offset="2" set="0"/>
          <vcount>4 </vcount>
          <p>0 8 40 1 8 41 5 8 42 4 8 43</p>
        </polylist>
      </mesh>
    </geometry>
  </library_geometries>
  <library_visual_scenes>
    <visual_scene id="Scene" name="Scene">
      <node id="PictureFrame" name="PictureFrame" type="NODE">
        <matrix sid="transform">1 0 0 0 0 1 0 0 0 0 1 0 0 0 0 1</matrix>
        <instance_geometry url="#Cube-mesh" name="PictureFrame">
          <bind_material>
            <technique_common>
              <instance_material symbol="Frame-material" target="#Frame-material">
                <bind_vertex_input semantic="UVMap" input_semantic="TEXCOORD" input_set="0"/>
              </instance_material>
              <instance_material symbol="Glass-material" target="#Glass-material">
                <bind_vertex_input semantic="UVMap" input_semantic="TEXCOORD" input_set="0"/>
              </instance_material>
              <instance_material symbol="Border-material" target="#Border-material">
                <bind_vertex_input semantic="UVMap" input_semantic="TEXCOORD" input_set="0"/>
              </instance_material>
            </technique_common>
          </bind_material>
        </instance_geometry>
      </node>
    </visual_scene>
  </library_visual_scenes>
  <scene>
    <instance_visual_scene url="#Scene"/>
  </scene>
</COLLADA>