<?xml version="1.0" encoding="utf-8"?>
<COLLADA xmlns="http://www.collada.org/2005/11/COLLADASchema" version="1.4.1" xmlns:xsi="http://www.w3.org/2001/XMLSchema-instance">
  <asset>
    <contributor>
      <author>Blender User</author>
      <authoring_tool>Blender 2.90.1 commit date:2020-09-23, commit time:06:43, hash:3e85bb34d0d7</authoring_tool>
    </contributor>
    <created>2020-12-04T18:37:02</created>
    <modified>2020-12-04T18:37:02</modified>
    <unit name="meter" meter="1"/>
    <up_axis>Z_UP</up_axis>
  </asset>
  <library_effects>
    <effect id="DellPrecision7820-effect">
      <profile_COMMON>
        <newparam sid="DellPrecision7820_png-surface">
          <surface type="2D">
            <init_from>DellPrecision7820_png</init_from>
          </surface>
        </newparam>
        <newparam sid="DellPrecision7820_png-sampler">
          <sampler2D>
            <source>DellPrecision7820_png-surface</source>
          </sampler2D>
        </newparam>
        <technique sid="common">
          <lambert>
            <emission>
              <color sid="emission">0 0 0 1</color>
            </emission>
            <diffuse>
              <texture texture="DellPrecision7820_png-sampler" texcoord="UVMap"/>
            </diffuse>
            <index_of_refraction>
              <float sid="ior">1.45</float>
            </index_of_refraction>
          </lambert>
        </technique>
      </profile_COMMON>
    </effect>
  </library_effects>
  <library_images>
    <image id="DellPrecision7820_png" name="DellPrecision7820_png">
      <init_from>/G:/My%20Drive/Models/OfficeProps/DellPrecision7820.png</init_from>
    </image>
  </library_images>
  <library_materials>
    <material id="DellPrecision7820-material" name="DellPrecision7820">
      <instance_effect url="#DellPrecision7820-effect"/>
    </material>
  </library_materials>
  <library_geometries>
    <geometry id="DellPrecision7820-mesh" name="DellPrecision7820">
      <mesh>
        <source id="DellPrecision7820-mesh-positions">
          <float_array id="DellPrecision7820-mesh-positions-array" count="228">-0.0915293 -0.2063757 0.4127516 -0.0915293 -0.2063757 0 0.0718171 0.2063757 0.4127516 0.0718171 0.2063757 0 -0.01334488 0.2371548 0.3890208 0.06935578 0.2356745 0.3890208 0.07181704 -0.2063757 0.4127516 0.07181704 -0.2063757 0 0.06935578 0.2356745 0.4120143 -0.01271688 0.2063757 0.4127516 -0.01334488 0.2371548 0.4120143 -0.01271688 0.2063757 0 -0.09152925 0.2375589 0.4127516 -0.09152925 0.2375589 0 -0.01271688 0.2375589 0 -0.01271688 0.2375589 0.4127516 -0.01334488 0.2316061 0.4120143 -0.01334488 0.2316061 0.3890208 0.0711891 0.2316061 0.3890208 0.0711891 0.2316061 0.4120143 0.06512093 0.2316061 0.4120143 0.06512093 0.2316061 0.3890208 0.06512093 0.2371548 0.3890208 0.06512093 0.2371548 0.4120143 0.06512093 0.2052738 0.4120143 0.0711891 0.2052738 0.4120143 0.0711891 0.2052738 0.3890208 0.06512093 0.2052738 0.3890208 0.06935578 -0.2354501 0.4120143 0.06935578 -0.2354501 0.3890208 0.0711891 -0.2313817 0.4120143 0.0711891 -0.2313817 0.3890208 0.06512093 -0.2313817 0.3890208 0.06512093 -0.2313817 0.4120143 0.06512093 -0.2369304 0.4120143 0.06512093 -0.2369304 0.3890208 0.06512093 -0.2050493 0.3890208 0.0711891 -0.2050493 0.3890208 0.0711891 -0.2050493 0.4120143 0.06512093 -0.2050493 0.4120143 -0.08868318 -0.2354501 0.3890209 -0.08868318 -0.2354501 0.4120144 -0.09051644 -0.2313817 0.3890209 -0.09051644 -0.2313817 0.4120144 -0.08444833 -0.2313817 0.4120144 -0.08444833 -0.2313817 0.3890209 -0.08444833 -0.2369304 0.3890209 -0.08444833 -0.2369304 0.4120144 -0.08444833 -0.2050493 0.4120144 -0.09051644 -0.2050493 0.4120144 -0.09051644 -0.2050493 0.3890209 -0.08444833 -0.2050493 0.3890209 0.03135877 -0.225929 0.3884758 0.04036504 -0.225929 0.3884758 0.03135877 -0.2218607 0.3890771 0.04036504 -0.2218607 0.3890771 0.04036504 -0.2218607 0.3818675 0.03135877 -0.2218607 0.3818675 0.03135877 -0.2274093 0.3853897 0.04036504 -0.2274093 0.3853897 0.04036504 -0.2050493 0.3818675 0.04036504 -0.2050493 0.3890771 0.03135877 -0.2050493 0.3890771 0.03135877 -0.2050493 0.3818675 0.04036498 -0.225929 0.3366526 0.03135871 -0.225929 0.3366526 0.04036498 -0.2218607 0.3360514 0.03135871 -0.2218607 0.3360514 0.03135871 -0.2218607 0.343261 0.04036498 -0.2218607 0.343261 0.04036498 -0.2274093 0.3397387 0.03135871 -0.2274093 0.3397387 0.03135871 -0.2050493 0.343261 0.03135871 -0.2050493 0.3360514 0.04036498 -0.2050493 0.3360514 0.04036498 -0.2050493 0.343261</float_array>
          <technique_common>
            <accessor source="#DellPrecision7820-mesh-positions-array" count="76" stride="3">
              <param name="X" type="float"/>
              <param name="Y" type="float"/>
              <param name="Z" type="float"/>
            </accessor>
          </technique_common>
        </source>
        <source id="DellPrecision7820-mesh-normals">
          <float_array id="DellPrecision7820-mesh-normals-array" count="126">0 0 1 1 0 0 0 0 -1 0 1 0 -1 0 0 0 -1 0 0.6756547 0.7372183 0 0.9776788 0.2101055 0 8.45636e-7 0 1 1 0 0 0.1673461 0.9858983 0 9.66398e-6 0 -1 1 0 0 -1 0 0 0.6756559 -0.7372172 0 0.9776788 -0.2101055 0 0.1673476 -0.985898 0 0.1673477 -0.985898 0 -0.6756563 -0.7372168 0 -0.9776788 -0.2101051 0 -0.1673476 -0.985898 0 -0.1673477 -0.985898 0 4.83199e-6 0 1 5.61097e-7 0 1 -5.61097e-7 0 -1 0 -0.5932832 0.8049939 0 -0.07329076 0.9973107 0 -0.9751003 0.2217641 0 -0.9751003 0.2217642 1 9.85725e-7 0 -1 -2.81636e-7 0 0 1 0 -1 0 5.16713e-7 0 -0.5932818 -0.804995 0 -0.07328712 -0.9973109 0 -0.07328718 -0.9973109 0 -0.5932819 -0.8049948 0 -0.9751008 -0.2217624 0 -0.9751007 -0.2217625 -1 -4.22451e-7 2.93323e-7 -1 -1.86755e-7 1.14954e-6 1 0 -1.14954e-6</float_array>
          <technique_common>
            <accessor source="#DellPrecision7820-mesh-normals-array" count="42" stride="3">
              <param name="X" type="float"/>
              <param name="Y" type="float"/>
              <param name="Z" type="float"/>
            </accessor>
          </technique_common>
        </source>
        <source id="DellPrecision7820-mesh-map-0">
          <float_array id="DellPrecision7820-mesh-map-0-array" count="496">0.09631359 0.04658365 0.2034847 0.5895923 0.01117914 0.5911461 0.01195609 0.04192221 0.7931082 0.4954813 0.7931082 0.9963921 0.2381119 0.9963921 0.2381119 0.4954813 0.8514879 0.986502 0.8514879 0.9845334 0.8236491 0.9845334 0.8236491 0.986502 0.1471498 0.6322805 0.07694232 0.9999669 0.001637935 0.9999669 0.001637935 0.6322805 0.886201 0.5058889 0.886201 0.9907439 0.7941926 0.9907439 0.7941926 0.5058889 0.2243333 0.002354323 0.2243333 0.4871169 0.7937221 0.4871169 0.7937221 0.002354323 0.8511074 0.9837724 0.8511074 0.9744299 0.8532603 0.9744299 0.8532603 0.9837724 0.9979445 -7.02381e-4 0.9979445 0.4903151 0.8010002 0.4903151 0.8010002 -7.02381e-4 0.8481139 0.9893136 0.8466705 0.9893136 0.8466705 0.9811558 0.8481139 0.9811558 1.002343 0.4929898 1.002343 1.001367 0.8827044 1.001367 0.8827043 0.4929898 0.2034847 0.5895923 0.09631359 0.04658365 0.09631359 0.005359053 0.1996002 0.005359113 0.07694232 0.9999669 0.1471498 0.6322805 0.1471498 1.027745 0.07694232 1.027745 0.7287527 0.9773706 0.7287527 0.5133278 0.7638109 0.5133278 0.7638109 0.9773706 0.854532 0.9822973 0.854532 0.9904551 0.8560344 0.9904551 0.8560344 0.9822973 0.8511074 0.985741 0.8511074 0.9837724 0.8532603 0.9837724 0.8526099 0.9852158 0.8232686 0.985741 0.8232686 0.9837724 0.8511074 0.9837724 0.8511074 0.985741 0.8266931 0.9822973 0.8266931 0.9904551 0.854532 0.9904551 0.854532 0.9822973 0.8274541 0.9811558 0.8552929 0.9811558 0.8552929 0.9893136 0.8274541 0.9893136 0.8529905 0.9859768 0.8536409 0.9845334 0.8514879 0.9845334 0.8514879 0.986502 0.8536409 0.9845334 0.8536409 0.9751909 0.8514879 0.9751909 0.8514879 0.9845334 0.8466705 0.9893136 0.837328 0.9893136 0.837328 0.9811558 0.8466705 0.9811558 0.8474316 0.9803947 0.8380891 0.9803947 0.8380891 0.9885526 0.8474316 0.9885526 0.8686105 0.9842666 0.8686105 0.993609 0.8707634 0.993609 0.8707634 0.9842666 0.8384917 0.9845803 0.8399352 0.9845803 0.8399352 0.9927381 0.8384917 0.9927381 0.8686105 0.9896941 0.8686105 0.9815362 0.870113 0.9815362 0.870113 0.9896941 0.8686105 0.982298 0.8686105 0.9842666 0.8707634 0.9842666 0.870113 0.9828231 0.870113 0.9828231 0.8707634 0.9842666 0.8686105 0.9842666 0.8686105 0.982298 0.8707634 0.9842666 0.8707634 0.993609 0.8686105 0.993609 0.8686105 0.9842666 0.8399352 0.9845803 0.8492776 0.9845803 0.8492776 0.9927381 0.8399352 0.9927381 0.8399352 0.9927381 0.8492776 0.9927381 0.8492776 0.9845803 0.8399352 0.9845803 0.815545 0.9896941 0.8686105 0.9896941 0.8686105 0.9815362 0.815545 0.9815363 0.815545 0.9842666 0.815545 0.993609 0.8133921 0.993609 0.8133921 0.9842666 0.8384917 0.9927381 0.8399352 0.9927381 0.8399352 0.9845803 0.8384917 0.9845803 0.815545 0.9815363 0.815545 0.9896941 0.8140425 0.9896941 0.8140425 0.9815363 0.815545 0.982298 0.815545 0.9842666 0.8133921 0.9842666 0.8140425 0.9828231 0.815545 0.9815363 0.8686105 0.9815362 0.8686105 0.9896941 0.815545 0.9896941 0.8686105 0.982298 0.8686105 0.9842666 0.815545 0.9842666 0.815545 0.982298 0.8140425 0.9828231 0.8133921 0.9842666 0.815545 0.9842666 0.815545 0.982298 0.8133921 0.9842666 0.8133921 0.993609 0.815545 0.993609 0.815545 0.9842666 0.8399352 0.9927381 0.8492776 0.9927381 0.8492776 0.9845803 0.8399352 0.9845803 0.8399352 0.9845803 0.8492776 0.9845803 0.8492776 0.9927381 0.8399352 0.9927381 0.815545 0.9842666 0.8686105 0.9842666 0.8686105 0.982298 0.815545 0.982298 0.8686105 0.9842666 0.8686105 0.993609 0.8707634 0.993609 0.8707634 0.9842666 0.8384917 0.9845803 0.8399352 0.9845803 0.8399352 0.9927381 0.8384917 0.9927381 0.8686105 0.9896941 0.8686105 0.9815362 0.870113 0.9815362 0.870113 0.9896941 0.8686105 0.982298 0.8686105 0.9842666 0.8707634 0.9842666 0.870113 0.9828231 0.870113 0.9828231 0.8707634 0.9842666 0.8686105 0.9842666 0.8686105 0.982298 0.8707634 0.9842666 0.8707634 0.993609 0.8686105 0.993609 0.8686105 0.9842666 0.8399352 0.9845803 0.8492776 0.9845803 0.8492776 0.9927381 0.8399352 0.9927381 0.8399352 0.9927381 0.8492776 0.9927381 0.8492776 0.9845803 0.8399352 0.9845803 0.815545 0.9896941 0.8686105 0.9896941 0.8686105 0.9815362 0.815545 0.9815363 0.815545 0.9842666 0.815545 0.993609 0.8133921 0.993609 0.8133921 0.9842666 0.8384917 0.9927381 0.8399352 0.9927381 0.8399352 0.9845803 0.8384917 0.9845803 0.815545 0.9815363 0.815545 0.9896941 0.8140425 0.9896941 0.8140425 0.9815363 0.815545 0.982298 0.815545 0.9842666 0.8133921 0.9842666 0.8140425 0.9828231 0.815545 0.9815363 0.8686105 0.9815362 0.8686105 0.9896941 0.815545 0.9896941 0.8686105 0.982298 0.8686105 0.9842666 0.815545 0.9842666 0.815545 0.982298 0.8140425 0.9828231 0.8133921 0.9842666 0.815545 0.9842666 0.815545 0.982298 0.8133921 0.9842666 0.8133921 0.993609 0.815545 0.993609 0.815545 0.9842666 0.8399352 0.9927381 0.8492776 0.9927381 0.8492776 0.9845803 0.8399352 0.9845803 0.8399352 0.9845803 0.8492776 0.9845803 0.8492776 0.9927381 0.8399352 0.9927381 0.815545 0.9842666 0.8686105 0.9842666 0.8686105 0.982298 0.815545 0.982298</float_array>
          <technique_common>
            <accessor source="#DellPrecision7820-mesh-map-0-array" count="248" stride="2">
              <param name="S" type="float"/>
              <param name="T" type="float"/>
            </accessor>
          </technique_common>
        </source>
        <vertices id="DellPrecision7820-mesh-vertices">
          <input semantic="POSITION" source="#DellPrecision7820-mesh-positions"/>
        </vertices>
        <polylist material="DellPrecision7820-material" count="62">
          <input semantic="VERTEX" source="#DellPrecision7820-mesh-vertices" offset="0"/>
          <input semantic="NORMAL" source="#DellPrecision7820-mesh-normals" offset="1"/>
          <input semantic="TEXCOORD" source="#DellPrecision7820-mesh-map-0" offset="2" set="0"/>
          <vcount>4 4 4 4 4 4 4 4 4 4 4 4 4 4 4 4 4 4 4 4 4 4 4 4 4 4 4 4 4 4 4 4 4 4 4 4 4 4 4 4 4 4 4 4 4 4 4 4 4 4 4 4 4 4 4 4 4 4 4 4 4 4 </vcount>
          <p>9 0 0 0 0 1 6 0 2 2 0 3 3 1 4 2 1 5 6 1 6 7 1 7 22 2 8 21 2 9 17 2 10 4 2 11 1 2 12 11 2 13 3 2 14 7 2 15 11 3 16 9 3 17 2 3 18 3 3 19 1 4 20 0 4 21 12 4 22 13 4 23 20 0 24 24 0 25 25 0 26 19 0 27 7 5 28 6 5 29 0 5 30 1 5 31 8 6 32 19 7 33 18 7 34 5 6 35 13 3 36 12 3 37 15 3 38 14 3 39 0 8 40 9 8 41 15 8 42 12 8 43 11 2 44 1 2 45 13 2 46 14 2 47 9 9 48 11 9 49 14 9 50 15 9 51 22 10 52 23 10 53 8 6 54 5 6 55 23 0 56 20 0 57 19 0 58 8 0 59 10 0 60 16 0 61 20 0 62 23 0 63 4 3 64 10 3 65 23 10 66 22 10 67 17 5 68 21 5 69 20 5 70 16 5 71 5 11 72 18 11 73 21 11 74 22 11 75 18 2 76 26 2 77 27 2 78 21 2 79 19 7 80 25 12 81 26 12 82 18 7 83 21 13 84 27 13 85 24 13 86 20 13 87 32 2 88 36 2 89 37 2 90 31 2 91 29 14 92 31 15 93 30 15 94 28 14 95 34 16 96 35 17 97 29 14 98 28 14 99 35 2 100 32 2 101 31 2 102 29 2 103 28 0 104 30 0 105 33 0 106 34 0 107 30 0 108 38 0 109 39 0 110 33 0 111 31 15 112 37 12 113 38 12 114 30 15 115 33 13 116 39 13 117 36 13 118 32 13 119 44 3 120 33 3 121 32 3 122 45 3 123 44 0 124 48 0 125 49 0 126 43 0 127 41 18 128 43 19 129 42 19 130 40 18 131 46 20 132 47 21 133 41 18 134 40 18 135 47 22 136 44 22 137 43 22 138 41 22 139 46 20 140 35 17 141 34 16 142 47 21 143 34 23 144 33 23 145 44 23 146 47 23 147 40 2 148 42 2 149 45 2 150 46 2 151 42 2 152 50 2 153 51 2 154 45 2 155 43 19 156 49 13 157 50 13 158 42 19 159 45 12 160 51 12 161 48 12 162 44 12 163 45 24 164 32 24 165 35 24 166 46 24 167 56 12 168 60 12 169 61 12 170 55 12 171 53 25 172 55 26 173 54 26 174 52 25 175 58 27 176 59 28 177 53 25 178 52 25 179 59 29 180 56 29 181 55 29 182 53 29 183 52 30 184 54 30 185 57 30 186 58 30 187 54 13 188 62 13 189 63 13 190 57 13 191 55 26 192 61 0 193 62 0 194 54 26 195 57 2 196 63 2 197 60 2 198 56 2 199 68 31 200 57 31 201 56 31 202 69 31 203 68 32 204 72 32 205 73 32 206 67 32 207 65 33 208 67 34 209 66 35 210 64 36 211 70 37 212 71 38 213 65 33 214 64 36 215 71 39 216 68 39 217 67 39 218 65 39 219 70 37 220 59 28 221 58 27 222 71 38 223 58 40 224 57 40 225 68 40 226 71 40 227 64 12 228 66 12 229 69 12 230 70 12 231 66 12 232 74 12 233 75 12 234 69 12 235 67 34 236 73 2 237 74 2 238 66 35 239 69 0 240 75 0 241 72 0 242 68 0 243 69 41 244 56 41 245 59 41 246 70 41 247</p>
        </polylist>
      </mesh>
    </geometry>
  </library_geometries>
  <library_visual_scenes>
    <visual_scene id="Scene" name="Scene">
      <node id="DellPrecision7820" name="DellPrecision7820" type="NODE">
        <matrix sid="transform">1 0 0 0 0 1 0 0 0 0 1 0 0 0 0 1</matrix>
        <instance_geometry url="#DellPrecision7820-mesh" name="DellPrecision7820">
          <bind_material>
            <technique_common>
              <instance_material symbol="DellPrecision7820-material" target="#DellPrecision7820-material">
                <bind_vertex_input semantic="UVMap" input_semantic="TEXCOORD" input_set="0"/>
              </instance_material>
            </technique_common>
          </bind_material>
        </instance_geometry>
      </node>
    </visual_scene>
  </library_visual_scenes>
  <scene>
    <instance_visual_scene url="#Scene"/>
  </scene>
</COLLADA>