<?xml version="1.0" encoding="utf-8"?>
<COLLADA xmlns="http://www.collada.org/2005/11/COLLADASchema" version="1.4.1" xmlns:xsi="http://www.w3.org/2001/XMLSchema-instance">
  <asset>
    <contributor>
      <author>Blender User</author>
      <authoring_tool>Blender 2.90.1 commit date:2020-09-23, commit time:06:43, hash:3e85bb34d0d7</authoring_tool>
    </contributor>
    <created>2020-11-12T11:42:07</created>
    <modified>2020-11-12T11:42:07</modified>
    <unit name="meter" meter="1"/>
    <up_axis>Z_UP</up_axis>
  </asset>
  <library_effects>
    <effect id="GameBoyBox-effect">
      <profile_COMMON>
        <newparam sid="gameBox-surface">
          <surface type="2D">
            <init_from>gameBox</init_from>
          </surface>
        </newparam>
        <newparam sid="gameBox-sampler">
          <sampler2D>
            <source>gameBox-surface</source>
          </sampler2D>
        </newparam>
        <technique sid="common">
          <lambert>
            <emission>
              <color sid="emission">0 0 0 1</color>
            </emission>
            <diffuse>
              <texture texture="gameBox-sampler" texcoord="UVMap"/>
            </diffuse>
            <reflectivity>
              <float sid="specular">0.5</float>
            </reflectivity>
            <index_of_refraction>
              <float sid="ior">1.45</float>
            </index_of_refraction>
          </lambert>
        </technique>
      </profile_COMMON>
    </effect>
  </library_effects>
  <library_images>
    <image id="gameBox" name="gameBox">
      <init_from>/G:/My%20Drive/Models/GameBoy/BrickarusBox.png</init_from>
    </image>
  </library_images>
  <library_materials>
    <material id="GameBoyBox-material" name="GameBoyBox">
      <instance_effect url="#GameBoyBox-effect"/>
    </material>
  </library_materials>
  <library_geometries>
    <geometry id="Plane_001-mesh" name="Plane.001">
      <mesh>
        <source id="Plane_001-mesh-positions">
          <float_array id="Plane_001-mesh-positions-array" count="456">2.45994 -0.475844 0.03253316 2.48995 -0.4760619 0.00202322 1.632074 -0.3336678 0.060189 1.632074 -0.3355187 0.03023612 -2.485949 -0.5142025 0.002022504 -2.455939 -0.5039984 0.03248155 1.628607 -0.01673692 0.04060518 1.628606 -0.01795452 0.01061314 -2.485948 -0.5062799 4.987168 -2.455938 -0.4961292 4.956337 2.459941 -0.475843 4.956616 2.48995 -0.4760614 4.987168 1.571277 0.4195614 4.940676 1.570742 0.4195614 4.970681 -2.455939 0.4074193 0.03254878 -2.485949 0.4374293 0.002022981 -2.485948 0.4374294 4.987168 -2.455938 0.4074193 4.95734 1.675105 -0.4760627 4.942524 1.67457 -0.4760618 4.972529 2.46631 0.4074193 0.03257697 2.496537 0.4374293 0.00202322 2.496537 0.4374294 4.987168 2.46631 0.4074193 4.957474 -1.617884 0.4269481 4.933706 -1.617073 0.4269481 4.963705 1.666868 0.4214039 4.942378 1.666332 0.4214048 4.972383 -2.478747 -0.4887952 4.993326 -2.47869 -0.5188843 5.024552 2.476759 -0.4985926 5.024743 2.476701 -0.4685036 4.993517 2.440708 -0.5210942 -0.002051889 2.428675 -0.4911373 0.02877676 2.448173 -0.5033413 4.987266 2.46041 -0.533325 4.987158 -1.204457 0.4374196 0.0210542 -1.204903 0.4374196 0.05106085 1.22173 -0.1596841 0.05305713 1.221235 -0.1596841 0.02305126 1.409231 -0.2863073 0.04996502 1.408737 -0.2863073 0.01995909 1.331674 -0.3215588 0.05124431 1.331179 -0.321559 0.02123838 1.22035 0.4374179 0.0530799 1.219855 0.4374189 0.02307397 1.221941 -0.2508315 0.05305415 1.221446 -0.2508316 0.02304822 2.458969 -0.4980781 4.987275 2.489182 -0.5105316 4.987158 2.476768 -0.4807014 0.003228545 2.446556 -0.468248 0.003345251 2.446762 -0.1073869 0.3813838 2.476768 -0.1069067 0.381345 2.446762 -0.1104243 4.59346 2.476768 -0.1099441 4.593421 1.60064 -0.4057126 0.06464082 1.60064 -0.4075635 0.03468793 1.522025 -0.4460677 0.06713497 1.522025 -0.4479189 0.03718209 -1.502769 -0.446527 0.06716316 -1.502769 -0.4483782 0.03721028 -1.573501 -0.4172767 0.06535547 -1.573501 -0.4191278 0.03540259 -1.606762 -0.3593018 0.06177312 -1.606762 -0.3611527 0.03182023 -1.610168 -0.02913177 0.04137116 -1.610169 -0.03034943 0.01137912 -1.208666 -0.1951481 0.05100494 -1.20822 -0.1951481 0.02099823 -1.242513 -0.268274 0.05050224 -1.242068 -0.268274 0.02049559 -1.327789 -0.3078964 0.04923576 -1.327344 -0.3078964 0.01922911 -1.403668 -0.280505 0.04810887 -1.403222 -0.280505 0.01810222 -1.606621 0.02184534 0.04509484 -1.606175 0.0218454 0.0150882 1.589891 -0.4112306 0.06498181 1.589891 -0.4130816 0.03502893 -2.138855 0.3579999 0.0506016 -2.138855 0.3585406 0.02059644 -1.837751 0.3529299 0.05051016 -1.837751 0.3534706 0.02050507 -1.75202 0.3072943 0.0496878 -1.75202 0.3078351 0.0196827 -1.711271 0.2514277 0.04868108 -1.711271 0.2519685 0.01867598 -1.685536 0.1876928 0.01751768 -1.685524 0.1871187 0.04752218 -1.685215 -0.05034142 0.04324281 -1.685238 -0.04964536 0.01324075 1.663788 -0.05255687 0.04320222 1.663767 -0.05177211 0.01320248 1.665866 0.1939479 0.04764503 1.665856 0.1946557 0.01764315 1.684513 0.2436481 0.04854089 1.684513 0.2441887 0.01853579 1.721805 0.3033541 0.04961681 1.721805 0.3038948 0.01961171 1.771456 0.336085 0.05020666 1.771456 0.3366257 0.0202015 1.833419 0.3604495 0.0506457 1.833419 0.3609902 0.02064055 2.119659 0.3524272 0.0505011 2.119641 0.3530189 0.0204969 2.438864 -0.329966 0.03550481 2.438846 -0.3292326 0.005503654 -2.463201 -0.3206957 0.008356392 -2.463189 -0.3212698 0.03836089 -2.463818 -0.5395072 0.003398537 -2.448991 -0.5094923 0.0341019 -2.451061 -0.506035 4.987165 -2.465847 -0.536077 4.987158 1.663817 -0.04804629 0.04328334 1.663805 -0.04724192 0.01328414 1.630271 0.01910006 0.04632133 1.629776 0.01910114 0.0163154 -1.703857 -0.508451 4.936027 -1.703047 -0.508451 4.966026 -1.61828 -0.4743584 4.933716 -1.61747 -0.4743584 4.963716 -1.562979 -0.4082349 4.932223 -1.562169 -0.4082349 4.962222 -1.570558 0.4263779 4.932427 -1.569747 0.4263779 4.962427 -1.708178 0.4280362 4.936144 -1.707368 0.4280362 4.966143 -2.402711 -0.4772373 4.713755 -2.402682 -0.5072498 4.714704 2.415435 -0.4785665 4.693564 2.415464 -0.5085791 4.694513 -2.320379 -0.5170534 4.565802 -2.320379 -0.4871083 4.563831 -2.240149 -0.4904475 4.513112 -2.240149 -0.5203926 4.515084 -2.132248 -0.4918742 4.491442 -2.132248 -0.5218193 4.493413 2.117588 -0.4923687 4.483936 2.117588 -0.5223138 4.485908 2.241915 -0.4908601 4.506838 2.241915 -0.5208052 4.50881 2.34988 -0.5153558 4.591586 2.34988 -0.4854107 4.589614 1.567501 -0.3737477 4.940608 1.566966 -0.3737478 4.970613 1.612364 -0.4391641 4.941407 1.61183 -0.4391641 4.971412 1.617473 0.4204526 4.941498 1.616939 0.4204526 4.971503 -1.710389 0.2492239 0.04864138 -1.710389 0.2497646 0.01863622</float_array>
          <technique_common>
            <accessor source="#Plane_001-mesh-positions-array" count="152" stride="3">
              <param name="X" type="float"/>
              <param name="Y" type="float"/>
              <param name="Z" type="float"/>
            </accessor>
          </technique_common>
        </source>
        <source id="Plane_001-mesh-normals">
          <float_array id="Plane_001-mesh-normals-array" count="849">-0.007268309 -0.9999737 1.60444e-7 0.5511237 0.4521205 -0.7013201 0.9800859 -0.198193 0.01229745 0.7294812 -0.6826987 0.04218643 0.7294814 -0.6826985 0.04218637 0.9800859 -0.1981929 0.01229745 -0.2625268 -0.9649024 -0.006586611 2.03816e-4 -0.9999932 -0.003689527 -0.262517 -0.9649049 -0.006586492 -0.002079725 0.3007298 0.9537071 -0.004203438 0.6115052 0.7912294 -0.002162754 0.3128705 0.9497934 0.700395 0.6318669 0.3319503 -0.01725202 0.8924271 0.4508619 0.700383 0.6318777 0.3319556 -0.6986876 0.6333507 0.3327201 0.01803731 0.892315 0.451053 -0.6986856 0.6333524 0.3327209 0.0120396 0.9999275 -3.25392e-4 -0.00364989 0.9721126 -0.2344862 -0.003656804 0.9720885 -0.2345865 0.0120396 0.9999275 -3.25392e-4 -0.8977282 -0.00990796 -0.4404386 0.8952167 -0.02272057 -0.4450517 -0.006218791 0.9725843 -0.2324673 -0.01927024 0.9998142 -3.52171e-4 -0.01927024 0.9998142 -3.52171e-4 -0.006214678 0.9725676 -0.2325374 0.707895 0.7060589 -0.01912021 0.7078936 0.7060602 -0.01912015 -0.1848459 0.480085 -0.8575258 -0.4882363 0.1419624 -0.8610877 -0.1873483 0.4778418 -0.8582354 0.06984573 0.3387547 0.9382787 0.002055883 -0.003230631 0.9999927 0.08478999 0.4143972 0.9061378 0.9758451 -0.2179828 0.01449149 0.9758451 -0.2179829 0.01449149 -0.87731 -0.4797059 0.01446968 -0.9998614 -0.002310633 0.016492 -0.9998614 -0.002310633 0.016492 -0.8773096 -0.4797068 0.01446968 0.6328964 -0.7741662 -0.01044368 -0.07288074 -0.99734 0.001204848 -0.07287901 -0.9973401 0.001204848 0.6328959 -0.7741665 -0.01044368 0.8548996 -0.5063951 -0.112742 0.852587 -0.5101018 -0.113542 0.4483749 -0.87312 -0.1913675 0.06703752 0.9249523 -0.3741248 0.06654936 0.9258621 -0.3719551 0.0677483 0.9233483 0.3779393 0.06821352 0.9224675 0.3800011 0.4573702 -0.8875834 0.05485004 0.2353595 -0.9700576 0.05995118 0.2353597 -0.9700576 0.05995118 0.4573701 -0.8875834 0.05485004 -0.1950636 -0.9789229 0.06049984 -0.1950634 -0.978923 0.06049984 -0.660717 -0.7492058 0.04630029 -0.6607164 -0.7492063 0.04630035 -0.965049 -0.2615737 0.01611602 -0.9650489 -0.2615739 0.01611602 -0.8515654 -0.5127211 -0.1093327 -0.849205 -0.5164471 -0.1101511 -0.455161 -0.8702649 -0.188328 0.7075136 -0.7066216 0.01050674 0.7075134 -0.7066219 0.01050674 0.04424148 -0.9990207 6.56964e-4 0.04424095 -0.9990208 6.56956e-4 -0.6154052 -0.7881581 -0.009138882 -0.6154054 -0.7881579 -0.009138882 -0.2141861 -0.9729773 -0.08625316 -0.2141852 -0.9729774 -0.08625316 0.5212342 -0.8460218 -0.1120811 -0.5263221 0.8501428 0.0155667 0.2503444 0.9679997 0.01744365 0.2503444 0.9679997 0.01744365 -0.526322 0.8501428 0.0155667 0.6555858 0.7549982 0.01360517 0.8749535 0.4841286 0.008724033 0.8749538 0.4841279 0.008723974 0.9283739 0.3715872 0.006709098 0.981837 0.1897006 0.00314331 0.9817838 0.1899754 0.003148734 0.9283738 0.3715873 0.006709098 0.7055482 0.708456 0.01707923 0.7082149 0.705792 0.01701194 -0.7025955 0.7113629 0.01795554 -0.7059246 0.7080615 0.0178759 -0.9999687 0.007898867 6.57584e-4 -0.9832301 0.1823243 0.004067122 -0.9830098 0.1835082 0.004090905 -0.9999687 0.007905125 6.56553e-4 -0.8965489 0.4428624 0.008547902 -0.896549 0.4428623 0.008547902 -0.7157753 0.6982173 0.01258164 -0.7157754 0.6982173 0.01258164 -0.4607153 0.8874039 0.01599073 -0.4607152 0.887404 0.01599073 -0.1725104 0.98484 0.01817744 -0.1725104 0.98484 0.01817744 0.5483585 0.8360855 0.01625144 0.5487347 0.8358387 0.01624715 0.9726637 0.2036404 0.111607 0.9729853 0.2016025 0.1125001 -0.9694544 0.2039602 0.1362291 -0.9695105 0.2035493 0.1364452 -0.966295 -0.03800606 0.2546166 -9.22843e-6 -0.001898169 0.9999982 0.977578 -0.03148055 0.2082076 0.2136444 -0.9620198 -0.1699237 0.2136995 -0.9620092 -0.1699143 -0.4939575 -0.8363042 -0.2379105 -0.01392126 -0.9851601 -0.1710733 0.1820197 -0.9789255 -0.09259474 0.1820193 -0.9789255 -0.09259492 0.5861431 -0.810053 -0.01582956 0.5861435 -0.8100527 -0.01582962 0.9411389 -0.337063 -0.02541899 0.9411391 -0.3370625 -0.02541899 -0.01914983 0.8899102 -0.4557339 -0.9579221 -0.1365363 -0.2524743 -0.9248919 -0.08018541 -0.3716791 -0.925895 -0.08156937 -0.3688697 0.9774019 -0.09866881 -0.1869494 0.9274497 -0.06296169 -0.3686096 0.9286683 -0.06363487 -0.3654121 -0.7286956 -0.04097062 -0.6836112 -0.728694 -0.0409708 -0.683613 -0.3724634 -0.06097215 -0.9260419 -0.3724639 -0.06097215 -0.9260417 -0.1000258 -0.06537306 -0.992835 -0.1000259 -0.06537306 -0.9928349 0.09027075 -0.06543409 -0.9937654 0.09027045 -0.06543409 -0.9937654 0.4067105 -0.06001937 -0.9115834 0.4067108 -0.06001937 -0.9115834 0.7385757 -0.03945237 -0.6730152 0.7385747 -0.03945249 -0.6730163 0.007170259 0.8920016 -0.4519754 -0.7121093 0.7019543 -0.01267772 -0.7121125 0.7019509 -0.01267778 -0.9557075 -0.2938259 -0.01701515 -0.9557071 -0.2938272 -0.01701515 -0.6819493 -0.7312987 -0.01214075 -0.6819488 -0.7312992 -0.01214075 -0.7003288 2.69178e-7 0.7138205 -1 2.01867e-7 1.19664e-7 -0.6972202 2.69094e-7 0.7168571 0.690567 3.93427e-4 -0.7232684 0.6940562 3.9161e-4 -0.7199207 1 4.82052e-7 -1.21146e-7 0.6981689 -0.7159137 -0.0052675 0.8554071 -0.5179386 -0.004297316 0.8611707 -0.5082983 -0.004247486 -0.698171 0.7159117 0.0052675 -0.8592846 0.51148 0.004263937 -0.916163 0.4007893 0.003678441 0 1 0 0 -1 0 0.001228153 -0.9997478 0.02242749 0.001934945 -0.999995 -0.002530217 0.001221179 -0.9997422 0.02267229 -0.001230657 0.9997498 -0.02233952 -0.001226186 0.9997463 -0.02249681 -0.001934945 0.9999949 0.002530395 0.999974 -0.007210969 0 -0.999974 0.00721085 0 -0.01785439 3.87005e-5 0.9998407 -0.01787704 6.42623e-5 0.9998402 -0.01784855 3.20855e-5 0.9998408 0.01818388 2.53697e-4 -0.9998347 0.01811808 2.08533e-4 -0.9998359 0.01842439 4.18789e-4 -0.9998303 -1.00129e-4 0.03958165 0.9992163 1.16169e-4 -0.04061311 -0.999175 0 -0.9978397 0.065696 0 -0.9978397 0.065696 0 0.9978397 -0.06569653 0 0.9978397 -0.06569659 -0.7936983 -0.6083115 5.3128e-4 -0.4469542 -0.8945568 -1.88443e-4 -0.4417872 -0.8971199 -1.97664e-4 0.7937007 0.6083083 -5.31292e-4 0.1500889 0.9886723 6.71264e-4 0.465285 0.8851611 1.55446e-4 -0.01648819 -9.72729e-7 -0.9998641 -0.01648771 -6.07761e-7 -0.9998641 -0.01650363 3.62572e-5 -0.9998638 -0.01650768 4.43117e-5 -0.9998638 0.01648819 9.83905e-7 0.9998642 0.01648837 -7.07024e-5 0.9998641 0.01648777 -5.67823e-5 0.9998641 0.01648765 6.16975e-7 0.9998642 -6.3823e-5 -0.01943665 -0.9998111 -4.00899e-5 -0.03516227 -0.9993817 -4.01336e-5 -0.03513336 -0.9993827 6.06592e-5 0.01957434 0.9998084 3.82199e-5 0.03516757 0.9993815 3.81799e-5 0.03519535 0.9993805 0.0148493 3.23751e-7 -0.9998899 0.0148493 2.88286e-7 -0.9998898 0.01484954 0 -0.9998897 0.01484954 0 -0.9998897 -0.0148189 -4.06917e-5 0.9998902 -0.01484954 0 0.9998897 -0.01484954 0 0.9998897 -0.0148245 -3.32336e-5 0.9998902 -6.18315e-4 0.0197913 -0.999804 0 0.01801741 -0.9998378 0 0.01801735 -0.9998377 -2.78719e-4 0.01881694 -0.999823 5.5538e-4 -0.01961064 0.9998076 2.52282e-4 -0.01874101 0.9998244 0 -0.01801741 0.9998377 0 -0.01801741 0.9998377 -2.84006e-4 0.02699667 -0.9996356 -7.56782e-4 0.02234894 -0.99975 -7.46917e-4 0.0234766 -0.9997242 -7.23529e-4 0.02614957 -0.9996579 -2.67571e-4 0.02702838 -0.9996347 2.50187e-4 -0.02708894 0.9996331 2.58348e-4 -0.0270738 0.9996334 7.10809e-4 -0.02623337 0.9996557 7.06693e-4 -0.02345371 0.9997247 7.04628e-4 -0.02206087 0.9997565 0.002152383 -0.9999973 -8.8627e-4 -0.002152383 0.9999974 8.86246e-4 0.9998712 0.01600211 -0.001292467 -0.9998712 -0.01600253 0.001292467 -2.70863e-4 0.02626121 -0.9996551 -4.11962e-4 0.02248042 -0.9997472 2.65759e-4 -0.02625942 0.9996551 4.07059e-4 -0.022493 0.999747 0 -0.06167453 -0.9980964 0 -0.06167447 -0.9980964 0 0.06167447 0.9980964 0 0.06167447 0.9980964 0 -0.06167626 -0.9980962 -1.62856e-7 -0.0616759 -0.9980963 0 0.0616762 0.9980962 3.11369e-7 0.06167608 0.9980962 0 -0.06168615 -0.9980957 0 0.06168603 0.9980956 -7.73387e-7 -0.06167298 -0.9980964 1.54676e-6 0.06167411 0.9980964 0.01484918 4.51933e-7 -0.9998899 -0.01480007 -6.56743e-5 0.9998906 0.01484966 0 -0.9998898 -0.01484966 0 0.9998898 -0.01652103 7.06832e-5 -0.9998636 0.01648998 -1.12852e-4 0.9998641 -0.01649224 -3.80694e-6 -0.9998641 0.01649224 3.83338e-6 0.9998641 0.02699249 0 0.9996356 0.02699208 0 0.9996358 -0.02737385 3.0668e-4 -0.9996253 -0.0273301 2.71189e-4 -0.9996265 0.0269919 -1.61149e-7 0.9996357 0.02699458 -1.23344e-7 0.9996356 -0.02699571 1.26657e-7 -0.9996356 -0.02699595 1.61849e-7 -0.9996356 0.02700042 0 0.9996355 -0.02699512 0 -0.9996356 0 -0.9978398 0.06569504 0 -0.9978398 0.0656951 0 0.9978399 -0.06569391 0 0.9978399 -0.06569397 0 -0.9978384 0.06571578 0 0.9978384 -0.0657162 -0.01781457 -5.39285e-7 0.9998414 -0.01780855 -5.76473e-7 0.9998415 -0.01779711 -6.47129e-7 0.9998416 0.01781129 5.4248e-7 -0.9998415 0.01779842 6.44045e-7 -0.9998416 0.01780688 5.77504e-7 -0.9998415 0 0.01801729 -0.9998378 0 -0.01801735 0.9998378 0 0.01801747 -0.9998377 -9.74572e-4 0.02080899 -0.999783 5.47017e-7 -0.01801925 0.9998378 9.74655e-4 -0.02080851 0.999783</float_array>
          <technique_common>
            <accessor source="#Plane_001-mesh-normals-array" count="283" stride="3">
              <param name="X" type="float"/>
              <param name="Y" type="float"/>
              <param name="Z" type="float"/>
            </accessor>
          </technique_common>
        </source>
        <source id="Plane_001-mesh-map-0">
          <float_array id="Plane_001-mesh-map-0-array" count="1192">0 0.8722957 0 0.4656598 0 0.4656598 0 0.8722957 0.5598294 0.4656598 0.5563307 0.4656598 0.5563307 0.4656598 0.5598294 0.4656598 0.1450258 0.4025558 0.1475899 0.396668 0.1475899 0.396668 0.1450258 0.4025558 0 0.9393534 0 0.8722957 0 0.8722957 0 0.9393534 0.5595945 0.8722957 0.5559688 0.8722957 0.5559688 0.8722957 0.5595945 0.8722957 0.4809316 0.361118 0.4809316 0.4656598 0.4809316 0.4656598 0.4809316 0.361118 0.07451248 0.3615077 0.07451248 0.4656598 0.07451248 0.4656598 0.07451248 0.3615077 0.4829257 0.9431947 0.4827184 0.9358267 0.4827184 0.9358267 0.4829257 0.9431947 0.4809316 0.8722957 0.4809316 0.9494504 0.4809316 0.9494504 0.4809316 0.8722957 0.07451248 0.8722958 0.07451248 0.9494504 0.07451248 0.9494504 0.07451248 0.8722958 0.07320624 0.9400254 0.07312852 0.9440551 0.07312852 0.9440551 0.07320624 0.9400254 0.4830343 0.9470565 0.4829257 0.9431947 0.4829257 0.9431947 0.4830343 0.9470565 0.9657778 0.4656366 0.96202 0.4656598 0.96202 0.4656598 0.9657778 0.4656366 0.9648425 0.8722957 0.96202 0.8722957 0.96202 0.8722957 0.9648425 0.8722957 0.4809316 0.361118 0.5325301 0.361425 0.5325301 0.361425 0.4809316 0.361118 0.01837199 0.3616375 0.02580684 0.3616203 0.02580684 0.3616203 0.01837199 0.3616375 0.01547819 0.3769168 0.01260274 0.3705896 0.01260274 0.3705896 0.01547819 0.3769168 0.01260274 0.3705896 0.01837199 0.3616375 0.01837199 0.3616375 0.01260274 0.3705896 0.02580684 0.3616203 0.07451248 0.3615077 0.07451248 0.3615077 0.02580684 0.3616203 0.1453088 0.4285089 0.1450258 0.4025558 0.1450258 0.4025558 0.1453088 0.4285089 0.07451248 0.4656598 0.1453088 0.4285089 0.1453088 0.4285089 0.07451248 0.4656598 0.9657778 0.4656366 0.9977658 0.4964748 0.9977658 0.4964748 0.9657778 0.4656366 0.9977658 0.4964748 0.997518 0.8401681 0.997518 0.8401681 0.9977658 0.4964748 0.997518 0.8401681 0.9648425 0.8722957 0.9648425 0.8722957 0.997518 0.8401681 0.1484668 0.396217 0.1540025 0.3933699 0.1540025 0.3933699 0.1484668 0.396217 0.1540025 0.3933699 0.4007346 0.3933324 0.4007346 0.3933324 0.1540025 0.3933699 0.4007346 0.3933324 0.4065042 0.3957229 0.4065042 0.3957229 0.4007346 0.3933324 0.4065042 0.3957229 0.4092173 0.4004609 0.4092173 0.4004609 0.4065042 0.3957229 0.4092173 0.4004609 0.4094951 0.4274959 0.4094951 0.4274959 0.4092173 0.4004609 0.4094951 0.4274959 0.4809316 0.4656598 0.4809316 0.4656598 0.4094951 0.4274959 0.5325301 0.361425 0.538495 0.3641862 0.538495 0.3641862 0.5325301 0.361425 0.538495 0.3641862 0.541727 0.371143 0.541727 0.371143 0.538495 0.3641862 0.541727 0.371143 0.5394927 0.3773331 0.5394927 0.3773331 0.541727 0.371143 0.5394927 0.3773331 0.5148299 0.3938897 0.5148299 0.3938897 0.5394927 0.3773331 0.5148299 0.3938897 0.5563307 0.4656598 0.5563307 0.4656598 0.5148299 0.3938897 0.5863959 0.3923937 0.6110441 0.3928073 0.6110441 0.3928073 0.5863959 0.3923937 0.6110441 0.3928073 0.6180619 0.3965303 0.6180619 0.3965303 0.6110441 0.3928073 0.6180619 0.3965303 0.6213976 0.4010881 0.6213976 0.4010881 0.6180619 0.3965303 0.6214699 0.4012679 0.6235044 0.4063319 0.6235044 0.4063319 0.6214699 0.4012679 0.6235044 0.4063319 0.6235287 0.4256947 0.6235287 0.4256947 0.6235044 0.4063319 0.6235287 0.4256947 0.8976761 0.4258682 0.8976761 0.4258682 0.6235287 0.4256947 0.8976792 0.4254986 0.8978472 0.4057639 0.8978472 0.4057639 0.8976792 0.4254986 0.8978472 0.4057639 0.8993744 0.4017228 0.8993744 0.4017228 0.8978472 0.4057639 0.8993744 0.4017228 0.9024271 0.3968518 0.9024271 0.3968518 0.8993744 0.4017228 0.9024271 0.3968518 0.9064915 0.3941816 0.9064915 0.3941816 0.9024271 0.3968518 0.9064915 0.3941816 0.9115638 0.3921938 0.9115638 0.3921938 0.9064915 0.3941816 0.9115638 0.3921938 0.9349936 0.3928441 0.9349936 0.3928441 0.9115638 0.3921938 0.9349936 0.3928441 0.9611236 0.4485043 0.9611236 0.4485043 0.9349936 0.3928441 0.5598452 0.4478078 0.5863959 0.3923937 0.5863959 0.3923937 0.5598452 0.4478078 0.5598294 0.4656598 0.5598452 0.4478078 0.5598452 0.4478078 0.5598294 0.4656598 0.96202 0.8722957 0.5595945 0.8722957 0.5595945 0.8722957 0.96202 0.8722957 0.8976761 0.4258682 0.8976792 0.4254986 0.8976792 0.4254986 0.8976761 0.4258682 0.1475899 0.396668 0.1484668 0.396217 0.1484668 0.396217 0.1475899 0.396668 0.9611236 0.4485043 0.961148 0.4656598 0.961148 0.4656598 0.9611236 0.4485043 0.01547819 0.3769168 0.04039037 0.3949494 0.04039037 0.3949494 0.01547819 0.3769168 0.04039037 0.3949494 0 0.4656598 0 0.4656598 0.04039037 0.3949494 0.5559688 0.8722957 0.5574212 0.9361793 0.5574212 0.9361793 0.5559688 0.8722957 0.5574212 0.9361793 0.5549138 0.9431624 0.5549138 0.9431624 0.5574212 0.9361793 0.5549138 0.9431624 0.5496844 0.9476749 0.5496844 0.9476749 0.5549138 0.9431624 0.5496844 0.9476749 0.4830343 0.9470565 0.4830343 0.9470565 0.5496844 0.9476749 0.4827184 0.9358267 0.4809316 0.8722957 0.4809316 0.8722957 0.4827184 0.9358267 0.4809316 0.9494504 0.4809316 0.978889 0.4809316 0.978889 0.4809316 0.9494504 0.07451248 0.9494504 0.07443493 0.9805396 0.07443493 0.9805396 0.07451248 0.9494504 0.4809316 0.978889 0.473988 0.9910613 0.473988 0.9910613 0.4809316 0.978889 0.473988 0.9910613 0.4672205 0.9952073 0.4672205 0.9952073 0.473988 0.9910613 0.4672205 0.9952073 0.4581192 0.9969787 0.4581192 0.9969787 0.4672205 0.9952073 0.4581192 0.9969787 0.09963452 0.9975922 0.09963452 0.9975922 0.4581192 0.9969787 0.09963452 0.9975922 0.08913975 0.9957202 0.08913975 0.9957202 0.09963452 0.9975922 0.08913975 0.9957202 0.08000403 0.9889535 0.08000403 0.9889535 0.08913975 0.9957202 0.08000403 0.9889535 0.07443493 0.9805396 0.07443493 0.9805396 0.08000403 0.9889535 0.07451248 0.8722958 0.07320624 0.9400254 0.07320624 0.9400254 0.07451248 0.8722958 0.07312852 0.9440551 0.0730558 0.9478239 0.0730558 0.9478239 0.07312852 0.9440551 0.0730558 0.9478239 0.008345723 0.948132 0.008345723 0.948132 0.0730558 0.9478239 0.008345723 0.948132 0.003009736 0.9444717 0.003009736 0.9444717 0.008345723 0.948132 0.003009736 0.9444717 0 0.9393534 0 0.9393534 0.003009736 0.9444717 0.6213976 0.4010881 0.6214699 0.4012679 0.6214699 0.4012679 0.6213976 0.4010881 0.4809316 0.8722957 0.4809316 0.4656598 0.5563307 0.4656598 0.5559688 0.8722957 0.4809316 0.8722957 0.5559688 0.8722957 0.5563307 0.4656598 0.4809316 0.4656598 0.96202 0.8722957 0.96202 0.4656598 0.9657778 0.4656366 0.9648425 0.8722957 0.96202 0.8722957 0.9648425 0.8722957 0.9657778 0.4656366 0.96202 0.4656598 0.07451248 0.8722958 0.07451248 0.4656598 0.4809316 0.4656598 0.4809316 0.8722957 0.07451248 0.8722958 0.4809316 0.8722957 0.4809316 0.4656598 0.07451248 0.4656598 0.07443493 0.9805396 0.07451248 0.9494504 0.4809316 0.9494504 0.4809316 0.978889 0.07443493 0.9805396 0.4809316 0.978889 0.4809316 0.9494504 0.07451248 0.9494504 0 0.8722957 0 0.4656598 0.07451248 0.4656598 0.07451248 0.8722958 0 0.8722957 0.07451248 0.8722958 0.07451248 0.4656598 0 0.4656598 0 0.9393534 0 0.8722957 0.07451248 0.8722958 0.07320624 0.9400254 0 0.9393534 0.07320624 0.9400254 0.07451248 0.8722958 0 0.8722957 0.07451248 0.9494504 0.07451248 0.8722958 0.4809316 0.8722957 0.4809316 0.9494504 0.07451248 0.9494504 0.4809316 0.9494504 0.4809316 0.8722957 0.07451248 0.8722958 0.08000403 0.9889535 0.07443493 0.9805396 0.4809316 0.978889 0.473988 0.9910613 0.08000403 0.9889535 0.473988 0.9910613 0.4809316 0.978889 0.07443493 0.9805396 0.5559688 0.8722957 0.5563307 0.4656598 0.5598294 0.4656598 0.5595945 0.8722957 0.5559688 0.8722957 0.5595945 0.8722957 0.5598294 0.4656598 0.5563307 0.4656598 0.01547819 0.3769168 0.02580684 0.3616203 0.07451248 0.3615077 0.04039037 0.3949494 0.01547819 0.3769168 0.04039037 0.3949494 0.07451248 0.3615077 0.02580684 0.3616203 0.4809316 0.4656598 0.07451248 0.4656598 0.1453088 0.4285089 0.4094951 0.4274959 0.4809316 0.4656598 0.4094951 0.4274959 0.1453088 0.4285089 0.07451248 0.4656598 0.5148299 0.3938897 0.4809316 0.361118 0.5325301 0.361425 0.5394927 0.3773331 0.5148299 0.3938897 0.5394927 0.3773331 0.5325301 0.361425 0.4809316 0.361118 0.5598452 0.4478078 0.5863959 0.3923937 0.6214699 0.4012679 0.6235044 0.4063319 0.5598452 0.4478078 0.6235044 0.4063319 0.6214699 0.4012679 0.5863959 0.3923937 0.961148 0.4656598 0.5598294 0.4656598 0.6235287 0.4256947 0.8976761 0.4258682 0.8976792 0.4254986 0.961148 0.4656598 0.8976792 0.4254986 0.8976761 0.4258682 0.6235287 0.4256947 0.5598294 0.4656598 0.96202 0.8722957 0.5595945 0.8722957 0.5598294 0.4656598 0.96202 0.4656598 0.96202 0.8722957 0.96202 0.4656598 0.5598294 0.4656598 0.5595945 0.8722957 0.997518 0.8401681 0.9648425 0.8722957 0.9657778 0.4656366 0.9977658 0.4964748 0.997518 0.8401681 0.9977658 0.4964748 0.9657778 0.4656366 0.9648425 0.8722957 0.9611236 0.4485043 0.961148 0.4656598 0.8976792 0.4254986 0.8978472 0.4057639 0.9611236 0.4485043 0.8978472 0.4057639 0.8976792 0.4254986 0.961148 0.4656598 0.4092173 0.4004609 0.4094951 0.4274959 0.1453088 0.4285089 0.1450258 0.4025558 0.4092173 0.4004609 0.1450258 0.4025558 0.1453088 0.4285089 0.4094951 0.4274959 0.4065042 0.3957229 0.4092173 0.4004609 0.1450258 0.4025558 0.1484668 0.396217 0.4065042 0.3957229 0.1484668 0.396217 0.1450258 0.4025558 0.4092173 0.4004609 0.4007346 0.3933324 0.4065042 0.3957229 0.1484668 0.396217 0.1540025 0.3933699 0.4007346 0.3933324 0.1540025 0.3933699 0.1484668 0.396217 0.4065042 0.3957229 0.1475899 0.396668 0.1484668 0.396217 0.1450258 0.4025558 0.1475899 0.396668 0.1450258 0.4025558 0.1484668 0.396217 0.4809316 0.361118 0.5148299 0.3938897 0.5563307 0.4656598 0.4809316 0.4656598 0.4809316 0.361118 0.4809316 0.4656598 0.5563307 0.4656598 0.5148299 0.3938897 0.541727 0.371143 0.5394927 0.3773331 0.5325301 0.361425 0.538495 0.3641862 0.541727 0.371143 0.538495 0.3641862 0.5325301 0.361425 0.5394927 0.3773331 0.07451248 0.4656598 0 0.4656598 0.04039037 0.3949494 0.07451248 0.3615077 0.07451248 0.4656598 0.07451248 0.3615077 0.04039037 0.3949494 0 0.4656598 0.02580684 0.3616203 0.01547819 0.3769168 0.01260274 0.3705896 0.01837199 0.3616375 0.02580684 0.3616203 0.01837199 0.3616375 0.01260274 0.3705896 0.01547819 0.3769168 0.5598294 0.4656598 0.5598452 0.4478078 0.6235044 0.4063319 0.6235287 0.4256947 0.5598294 0.4656598 0.6235287 0.4256947 0.6235044 0.4063319 0.5598452 0.4478078 0.5574212 0.9361793 0.4827184 0.9358267 0.4809316 0.8722957 0.5559688 0.8722957 0.5574212 0.9361793 0.5559688 0.8722957 0.4809316 0.8722957 0.4827184 0.9358267 0.4827184 0.9358267 0.5574212 0.9361793 0.5549138 0.9431624 0.4829257 0.9431947 0.4827184 0.9358267 0.4829257 0.9431947 0.5549138 0.9431624 0.5574212 0.9361793 0.4830343 0.9470565 0.4829257 0.9431947 0.5549138 0.9431624 0.5496844 0.9476749 0.4830343 0.9470565 0.5496844 0.9476749 0.5549138 0.9431624 0.4829257 0.9431947 0.08913975 0.9957202 0.08000403 0.9889535 0.473988 0.9910613 0.4672205 0.9952073 0.08913975 0.9957202 0.4672205 0.9952073 0.473988 0.9910613 0.08000403 0.9889535 0.09963452 0.9975922 0.08913975 0.9957202 0.4672205 0.9952073 0.4581192 0.9969787 0.09963452 0.9975922 0.4581192 0.9969787 0.4672205 0.9952073 0.08913975 0.9957202 0.003009736 0.9444717 0.07312852 0.9440551 0.0730558 0.9478239 0.008345723 0.948132 0.003009736 0.9444717 0.008345723 0.948132 0.0730558 0.9478239 0.07312852 0.9440551 0.07312852 0.9440551 0.003009736 0.9444717 0 0.9393534 0.07320624 0.9400254 0.07312852 0.9440551 0.07320624 0.9400254 0 0.9393534 0.003009736 0.9444717 0.6213976 0.4010881 0.6214699 0.4012679 0.5863959 0.3923937 0.6110441 0.3928073 0.6180619 0.3965303 0.6213976 0.4010881 0.6180619 0.3965303 0.6110441 0.3928073 0.5863959 0.3923937 0.6214699 0.4012679 0.9115638 0.3921938 0.9349936 0.3928441 0.8978472 0.4057639 0.8993744 0.4017228 0.9024271 0.3968518 0.9064915 0.3941816 0.9115638 0.3921938 0.9064915 0.3941816 0.9024271 0.3968518 0.8993744 0.4017228 0.8978472 0.4057639 0.9349936 0.3928441 0.9349936 0.3928441 0.9611236 0.4485043 0.8978472 0.4057639 0.9349936 0.3928441 0.8978472 0.4057639 0.9611236 0.4485043</float_array>
          <technique_common>
            <accessor source="#Plane_001-mesh-map-0-array" count="596" stride="2">
              <param name="S" type="float"/>
              <param name="T" type="float"/>
            </accessor>
          </technique_common>
        </source>
        <vertices id="Plane_001-mesh-vertices">
          <input semantic="POSITION" source="#Plane_001-mesh-positions"/>
        </vertices>
        <polylist material="GameBoyBox-material" count="148">
          <input semantic="VERTEX" source="#Plane_001-mesh-vertices" offset="0"/>
          <input semantic="NORMAL" source="#Plane_001-mesh-normals" offset="1"/>
          <input semantic="TEXCOORD" source="#Plane_001-mesh-map-0" offset="2" set="0"/>
          <vcount>4 4 4 4 4 4 4 4 4 4 4 4 4 4 4 4 4 4 4 4 4 4 4 4 4 4 4 4 4 4 4 4 4 4 4 4 4 4 4 4 4 4 4 4 4 4 4 4 4 4 4 4 4 4 4 4 4 4 4 4 4 4 4 4 4 4 4 4 4 4 4 4 4 4 4 4 4 4 4 4 4 4 4 4 4 4 4 4 4 4 4 4 4 4 4 4 4 4 4 4 4 4 5 5 4 4 4 4 4 4 4 4 4 4 4 4 3 3 4 4 4 4 4 4 4 4 4 4 4 4 4 4 4 4 4 4 4 4 4 4 4 4 5 5 6 6 3 3 </vcount>
          <p>10 0 0 0 0 1 1 0 2 11 0 3 110 1 4 4 1 5 5 1 6 111 1 7 2 2 8 56 3 9 57 4 10 3 5 11 18 6 12 10 7 13 11 7 14 19 8 15 112 9 16 9 10 17 8 10 18 113 11 19 36 12 20 15 13 21 14 13 22 37 14 23 44 15 24 20 16 25 21 16 26 45 17 27 24 18 28 126 19 29 127 20 30 25 21 31 17 22 32 28 22 33 29 22 34 16 22 35 22 23 36 30 23 37 31 23 38 23 23 39 26 24 40 148 25 41 149 26 42 27 27 43 124 28 44 24 18 45 25 21 46 125 29 47 50 30 48 32 31 49 33 31 50 51 32 51 48 33 52 34 34 53 35 34 54 49 35 55 37 14 56 68 36 57 69 37 58 36 12 59 46 38 60 38 39 61 39 40 62 47 41 63 40 42 64 42 43 65 43 44 66 41 45 67 42 43 68 46 38 69 47 41 70 43 44 71 38 39 72 44 15 73 45 17 74 39 40 75 6 46 76 2 2 77 3 5 78 7 47 79 20 48 80 6 46 81 7 47 82 21 48 83 51 32 84 52 49 85 53 50 86 50 30 87 52 49 88 54 51 89 55 52 90 53 50 91 54 51 92 48 33 93 49 35 94 55 52 95 78 53 96 58 54 97 59 55 98 79 56 99 58 54 100 60 57 101 61 58 102 59 55 103 60 57 104 62 59 105 63 60 106 61 58 107 62 59 108 64 61 109 65 62 110 63 60 111 64 61 112 66 63 113 67 64 114 65 62 115 66 63 116 14 65 117 15 65 118 67 64 119 68 36 120 70 66 121 71 67 122 69 37 123 70 66 124 72 68 125 73 69 126 71 67 127 72 68 128 74 70 129 75 71 130 73 69 131 74 70 132 76 72 133 77 73 134 75 71 135 76 72 136 5 74 137 4 74 138 77 73 139 80 75 140 82 76 141 83 77 142 81 78 143 82 76 144 84 79 145 85 79 146 83 77 147 84 79 148 86 80 149 87 81 150 85 79 151 150 82 152 89 83 153 88 84 154 151 85 155 89 83 156 90 86 157 91 87 158 88 84 159 90 86 160 92 88 161 93 89 162 91 87 163 114 90 164 94 91 165 95 92 166 115 93 167 94 91 168 96 94 169 97 95 170 95 92 171 96 94 172 98 96 173 99 97 174 97 95 175 98 96 176 100 98 177 101 99 178 99 97 179 100 98 180 102 100 181 103 101 182 101 99 183 102 100 184 104 102 185 105 103 186 103 101 187 104 102 188 106 104 189 107 105 190 105 103 191 109 106 192 80 75 193 81 78 194 108 107 195 111 108 196 109 106 197 108 107 198 110 108 199 34 109 200 112 9 201 113 11 202 35 109 203 92 88 204 114 90 205 115 93 206 93 89 207 56 3 208 78 53 209 79 56 210 57 4 211 106 104 212 33 110 213 32 110 214 107 105 215 41 45 216 117 111 217 116 112 218 40 42 219 117 111 220 1 113 221 0 113 222 116 112 223 9 114 224 118 115 225 119 116 226 8 114 227 118 115 228 120 117 229 121 118 230 119 116 231 120 117 232 122 119 233 123 120 234 121 118 235 122 119 236 124 28 237 125 29 238 123 120 239 126 19 240 17 121 241 16 121 242 127 20 243 28 122 244 128 123 245 129 124 246 29 122 247 30 125 248 131 126 249 130 127 250 31 125 251 128 123 252 133 128 253 132 129 254 129 124 255 133 128 256 134 130 257 135 131 258 132 129 259 134 130 260 136 132 261 137 133 262 135 131 263 136 132 264 138 134 265 139 135 266 137 133 267 138 134 268 140 136 269 141 137 270 139 135 271 140 136 272 143 138 273 142 139 274 141 137 275 143 138 276 130 127 277 131 126 278 142 139 279 23 140 280 26 24 281 27 27 282 22 140 283 148 25 284 12 141 285 13 142 286 149 26 287 12 141 288 144 143 289 145 144 290 13 142 291 144 143 292 146 145 293 147 146 294 145 144 295 146 145 296 18 6 297 19 8 298 147 146 299 86 80 300 150 82 301 151 85 302 87 81 303 16 147 304 15 148 305 4 148 306 8 149 307 17 150 308 9 151 309 5 152 310 14 152 311 35 153 312 32 153 313 50 154 314 49 155 315 34 156 316 48 157 317 51 158 318 33 156 319 22 159 320 21 159 321 15 159 322 16 159 323 23 160 324 17 160 325 14 160 326 20 160 327 131 161 328 30 162 329 29 162 330 129 163 331 130 164 332 128 165 333 28 166 334 31 166 335 11 167 336 1 167 337 21 167 338 22 167 339 10 168 340 23 168 341 20 168 342 0 168 343 19 169 344 11 170 345 22 170 346 27 171 347 18 172 348 26 173 349 23 174 350 10 174 351 30 175 352 22 175 353 16 175 354 29 175 355 31 176 356 28 176 357 17 176 358 23 176 359 142 177 360 131 161 361 129 163 362 132 178 363 143 179 364 133 180 365 128 165 366 130 164 367 8 181 368 4 181 369 110 182 370 113 183 371 9 184 372 112 185 373 111 186 374 5 184 375 41 187 376 39 188 377 45 189 378 117 190 379 40 191 380 116 192 381 44 193 382 38 194 383 15 195 384 21 195 385 7 196 386 67 197 387 14 198 388 66 199 389 6 200 390 20 198 391 77 201 392 36 202 393 69 203 394 75 204 395 76 205 396 74 206 397 68 207 398 37 208 399 108 209 400 81 210 401 151 211 402 88 212 403 109 213 404 89 214 405 150 215 406 80 216 407 32 217 408 110 218 409 91 219 410 93 220 411 115 221 412 33 222 413 114 223 414 92 224 415 90 225 416 111 226 417 35 227 418 113 183 419 110 182 420 32 227 421 34 228 422 33 228 423 111 186 424 112 185 425 55 229 426 49 155 427 50 154 428 53 229 429 54 230 430 52 230 431 51 158 432 48 157 433 107 231 434 32 217 435 115 221 436 95 232 437 106 233 438 94 234 439 114 223 440 33 222 441 65 235 442 67 197 443 7 196 444 3 236 445 64 237 446 2 238 447 6 200 448 66 199 449 63 239 450 65 235 451 3 236 452 79 240 453 62 241 454 78 242 455 2 238 456 64 237 457 61 243 458 63 239 459 79 240 460 59 243 461 60 244 462 58 244 463 78 242 464 62 241 465 57 245 466 79 240 467 3 236 468 56 246 469 2 238 470 78 242 471 36 202 472 77 201 473 4 247 474 15 247 475 37 208 476 14 248 477 5 248 478 76 205 479 73 249 480 75 204 481 69 203 482 71 249 483 72 250 484 70 250 485 68 207 486 74 206 487 21 251 488 1 251 489 117 190 490 45 189 491 20 252 492 44 193 493 116 192 494 0 252 495 39 188 496 41 187 497 43 253 498 47 253 499 38 194 500 46 254 501 42 254 502 40 191 503 110 218 504 108 209 505 88 212 506 91 219 507 111 226 508 90 225 509 89 214 510 109 213 511 119 255 512 127 256 513 16 147 514 8 149 515 118 257 516 9 151 517 17 150 518 126 258 519 127 256 520 119 255 521 121 259 522 25 260 523 126 258 524 24 261 525 120 262 526 118 257 527 125 263 528 25 260 529 121 259 530 123 263 531 124 264 532 122 264 533 120 262 534 24 261 535 141 265 536 142 177 537 132 178 538 135 266 539 140 267 540 134 268 541 133 180 542 143 179 543 139 269 544 141 265 545 135 266 546 137 269 547 138 270 548 136 270 549 134 268 550 140 267 551 147 271 552 149 272 553 13 273 554 145 273 555 146 274 556 144 275 557 12 275 558 148 276 559 149 272 560 147 271 561 19 169 562 27 171 563 148 276 564 26 173 565 18 172 566 146 274 567 87 277 568 151 211 569 81 210 570 83 277 571 85 277 572 86 278 573 84 278 574 82 278 575 80 216 576 150 215 577 103 279 578 105 280 579 95 232 580 97 279 581 99 279 582 101 279 583 102 281 584 100 281 585 98 281 586 96 281 587 94 234 588 104 282 589 105 280 590 107 231 591 95 232 592 104 282 593 94 234 594 106 233 595</p>
        </polylist>
      </mesh>
    </geometry>
    <geometry id="Plane-mesh" name="Plane">
      <mesh>
        <source id="Plane-mesh-positions">
          <float_array id="Plane-mesh-positions-array" count="228">2.48994 -0.4760618 0.002033412 1.632074 -0.3355181 0.03024613 -2.485939 -0.5141991 0.002032697 1.628606 -0.01795411 0.01062315 -2.485938 -0.5062765 4.987158 2.48994 -0.4760613 4.987158 1.570743 0.4195614 4.970671 -2.485939 0.4374193 0.002033174 -2.485938 0.4374194 4.987158 1.67457 -0.4760618 4.972519 2.496527 0.4374193 0.002033352 2.496527 0.4374194 4.987158 -1.617074 0.4269481 4.963695 1.666332 0.4214048 4.972373 -2.47869 -0.5188742 5.024541 2.476759 -0.4985826 5.024733 2.440704 -0.5210842 -0.002041578 2.460406 -0.533315 4.987158 -1.204457 0.4374196 0.02106416 1.221235 -0.1596841 0.02306121 1.408737 -0.2863073 0.0199691 1.331179 -0.321559 0.0212484 1.219855 0.4374189 0.02308398 1.221446 -0.2508316 0.02305823 2.489172 -0.5105274 4.987158 2.476758 -0.4806972 0.003228604 2.476758 -0.1069068 0.381345 2.476758 -0.1099442 4.593421 1.60064 -0.4075629 0.03469789 1.522025 -0.4479183 0.0371921 -1.502769 -0.4483776 0.03722029 -1.573501 -0.4191272 0.0354126 -1.606762 -0.3611521 0.03183019 -1.610169 -0.03034901 0.01138913 -1.20822 -0.1951481 0.02100825 -1.242068 -0.268274 0.0205056 -1.327344 -0.3078964 0.01923906 -1.403223 -0.280505 0.01811218 -1.606175 0.0218454 0.01509815 1.589891 -0.4130809 0.03503888 -2.138855 0.3585404 0.02060645 -1.837751 0.3534705 0.02051502 -1.75202 0.3078349 0.01969265 -1.711271 0.2519683 0.01868593 -1.685536 0.1876925 0.01752769 -1.685238 -0.0496456 0.0132507 1.663767 -0.05177241 0.0132125 1.665856 0.1946555 0.01765316 1.684513 0.2441886 0.01854574 1.721805 0.3038946 0.01962172 1.771456 0.3366255 0.02021151 1.833419 0.3609901 0.02065056 2.119641 0.3530187 0.02050691 2.438846 -0.3292329 0.005513668 -2.463201 -0.3206959 0.008366346 -2.463813 -0.5394971 0.003408789 -2.465842 -0.536067 4.987158 1.663805 -0.04724216 0.01329416 1.629776 0.01910114 0.01632541 -1.703047 -0.508451 4.966016 -1.61747 -0.4743584 4.963706 -1.562169 -0.4082349 4.962212 -1.569748 0.4263779 4.962417 -1.707368 0.4280362 4.966133 -2.402682 -0.5072398 4.714704 2.415464 -0.5085691 4.694512 -2.320379 -0.5170435 4.565802 -2.240149 -0.5203827 4.515083 -2.132248 -0.5218093 4.493413 2.117588 -0.5223039 4.485907 2.241915 -0.5207953 4.508809 2.34988 -0.5153459 4.591585 1.566967 -0.3737478 4.970603 1.61183 -0.4391641 4.971402 1.616939 0.4204526 4.971493 -1.710389 0.2497644 0.01864624</float_array>
          <technique_common>
            <accessor source="#Plane-mesh-positions-array" count="76" stride="3">
              <param name="X" type="float"/>
              <param name="Y" type="float"/>
              <param name="Z" type="float"/>
            </accessor>
          </technique_common>
        </source>
        <source id="Plane-mesh-normals">
          <float_array id="Plane-mesh-normals-array" count="204">-1 0 1.19665e-7 -0.6972194 0 0.7168579 -0.7003259 0 0.7138233 0.6981699 -0.7159128 -0.00526756 0.8554167 -0.5179227 -0.004297256 0.8611705 -0.5082986 -0.004247486 0 1 0 0.001934945 -0.999995 -0.002530276 0.001221179 -0.9997423 0.02267271 0.001228153 -0.9997478 0.02242791 0.999974 -0.007211029 0 -0.01787781 6.42673e-5 0.9998403 -0.01784437 3.20865e-5 0.9998408 -0.01785123 3.87025e-5 0.9998407 -1.00053e-4 0.03958195 0.9992164 0 -0.9978397 0.06569683 0 -0.9978396 0.06569677 -0.7936955 -0.6083153 5.31281e-4 -0.4469538 -0.8945571 -1.88432e-4 -0.4417439 -0.8971413 -1.9773e-4 -0.01648771 -6.21941e-7 -0.9998641 -0.01650357 3.62656e-5 -0.9998638 -0.01650768 4.43215e-5 -0.9998638 -0.01648819 -9.91223e-7 -0.9998641 -6.3822e-5 -0.01943671 -0.9998112 -4.00891e-5 -0.03516227 -0.9993817 -4.01328e-5 -0.03513336 -0.9993827 0.0148493 3.01963e-7 -0.9998898 0.01484954 0 -0.9998897 0.01484954 0 -0.9998897 0.0148493 3.40247e-7 -0.9998897 0 0.01801741 -0.9998378 0 0.01801735 -0.9998377 -2.78713e-4 0.01881694 -0.999823 -6.18297e-4 0.01979118 -0.999804 -7.56767e-4 0.02234882 -0.99975 -7.46905e-4 0.0234766 -0.9997242 -7.23525e-4 0.02614963 -0.9996579 -2.6757e-4 0.02702838 -0.9996347 -2.83998e-4 0.02699673 -0.9996355 0.002152383 -0.9999974 -8.86258e-4 0.9998711 0.01600217 -0.001292467 -4.11961e-4 0.02248042 -0.9997473 -2.70864e-4 0.02626121 -0.9996551 0 -0.06167441 -0.9980964 0 -0.06167447 -0.9980964 -3.09688e-7 -0.0616759 -0.9980963 0 -0.06167626 -0.9980962 0 -0.06168627 -0.9980956 -1.54677e-6 -0.06167298 -0.9980964 0.01484912 4.78612e-7 -0.9998898 0.01484966 0 -0.9998898 -0.01652103 7.06972e-5 -0.9998636 -0.01649224 -3.85894e-6 -0.9998641 0.02699387 -1.40725e-7 0.9996356 0.02699398 -1.33361e-7 0.9996357 0.02699351 -1.60006e-7 0.9996356 0.02699398 -1.23181e-7 0.9996357 0.02699506 0 0.9996356 0 -0.9978399 0.06569409 0 -0.9978398 0.06569403 0 -0.9978387 0.06571137 -0.01780468 -5.76309e-7 0.9998415 -0.01779872 -6.44047e-7 0.9998417 -0.01780778 -5.40656e-7 0.9998415 0 0.01801729 -0.9998378 -9.74572e-4 0.02080899 -0.999783 0 0.01801747 -0.9998377</float_array>
          <technique_common>
            <accessor source="#Plane-mesh-normals-array" count="68" stride="3">
              <param name="X" type="float"/>
              <param name="Y" type="float"/>
              <param name="Z" type="float"/>
            </accessor>
          </technique_common>
        </source>
        <source id="Plane-mesh-map-0">
          <float_array id="Plane-mesh-map-0-array" count="292">0.4809316 0.4656598 0.5563307 0.4656598 0.5559688 0.8722957 0.4809316 0.8722957 0.96202 0.4656598 0.9657778 0.4656366 0.9648425 0.8722957 0.96202 0.8722957 0.07451248 0.4656598 0.4809316 0.4656598 0.4809316 0.8722957 0.07451248 0.8722958 0.07451248 0.9494504 0.4809316 0.9494504 0.4809316 0.978889 0.07443493 0.9805396 0 0.4656598 0.07451248 0.4656598 0.07451248 0.8722958 0 0.8722957 0 0.8722957 0.07451248 0.8722958 0.07320624 0.9400254 0 0.9393534 0.07451248 0.8722958 0.4809316 0.8722957 0.4809316 0.9494504 0.07451248 0.9494504 0.07443493 0.9805396 0.4809316 0.978889 0.473988 0.9910613 0.08000403 0.9889535 0.5563307 0.4656598 0.5598294 0.4656598 0.5595945 0.8722957 0.5559688 0.8722957 0.02580684 0.3616203 0.07451248 0.3615077 0.04039037 0.3949494 0.01547819 0.3769168 0.07451248 0.4656598 0.1453088 0.4285089 0.4094951 0.4274959 0.4809316 0.4656598 0.4809316 0.361118 0.5325301 0.361425 0.5394927 0.3773331 0.5148299 0.3938897 0.5863959 0.3923937 0.6214699 0.4012679 0.6235044 0.4063319 0.5598452 0.4478078 0.5598294 0.4656598 0.6235287 0.4256947 0.8976761 0.4258682 0.8976792 0.4254986 0.961148 0.4656598 0.5595945 0.8722957 0.5598294 0.4656598 0.96202 0.4656598 0.96202 0.8722957 0.9648425 0.8722957 0.9657778 0.4656366 0.9977658 0.4964748 0.997518 0.8401681 0.961148 0.4656598 0.8976792 0.4254986 0.8978472 0.4057639 0.9611236 0.4485043 0.4094951 0.4274959 0.1453088 0.4285089 0.1450258 0.4025558 0.4092173 0.4004609 0.4092173 0.4004609 0.1450258 0.4025558 0.1484668 0.396217 0.4065042 0.3957229 0.4065042 0.3957229 0.1484668 0.396217 0.1540025 0.3933699 0.4007346 0.3933324 0.1484668 0.396217 0.1450258 0.4025558 0.1475899 0.396668 0.5148299 0.3938897 0.5563307 0.4656598 0.4809316 0.4656598 0.4809316 0.361118 0.5394927 0.3773331 0.5325301 0.361425 0.538495 0.3641862 0.541727 0.371143 0 0.4656598 0.04039037 0.3949494 0.07451248 0.3615077 0.07451248 0.4656598 0.01547819 0.3769168 0.01260274 0.3705896 0.01837199 0.3616375 0.02580684 0.3616203 0.5598452 0.4478078 0.6235044 0.4063319 0.6235287 0.4256947 0.5598294 0.4656598 0.4827184 0.9358267 0.4809316 0.8722957 0.5559688 0.8722957 0.5574212 0.9361793 0.5574212 0.9361793 0.5549138 0.9431624 0.4829257 0.9431947 0.4827184 0.9358267 0.4829257 0.9431947 0.5549138 0.9431624 0.5496844 0.9476749 0.4830343 0.9470565 0.08000403 0.9889535 0.473988 0.9910613 0.4672205 0.9952073 0.08913975 0.9957202 0.08913975 0.9957202 0.4672205 0.9952073 0.4581192 0.9969787 0.09963452 0.9975922 0.07312852 0.9440551 0.0730558 0.9478239 0.008345723 0.948132 0.003009736 0.9444717 0.003009736 0.9444717 0 0.9393534 0.07320624 0.9400254 0.07312852 0.9440551 0.6214699 0.4012679 0.5863959 0.3923937 0.6110441 0.3928073 0.6180619 0.3965303 0.6213976 0.4010881 0.9349936 0.3928441 0.8978472 0.4057639 0.8993744 0.4017228 0.9024271 0.3968518 0.9064915 0.3941816 0.9115638 0.3921938 0.9611236 0.4485043 0.8978472 0.4057639 0.9349936 0.3928441</float_array>
          <technique_common>
            <accessor source="#Plane-mesh-map-0-array" count="146" stride="2">
              <param name="S" type="float"/>
              <param name="T" type="float"/>
            </accessor>
          </technique_common>
        </source>
        <vertices id="Plane-mesh-vertices">
          <input semantic="POSITION" source="#Plane-mesh-positions"/>
        </vertices>
        <polylist material="GameBoyBox-material" count="36">
          <input semantic="VERTEX" source="#Plane-mesh-vertices" offset="0"/>
          <input semantic="NORMAL" source="#Plane-mesh-normals" offset="1"/>
          <input semantic="TEXCOORD" source="#Plane-mesh-map-0" offset="2" set="0"/>
          <vcount>4 4 4 4 4 4 4 4 4 4 4 4 4 5 4 4 4 4 4 4 3 4 4 4 4 4 4 4 4 4 4 4 4 5 6 3 </vcount>
          <p>7 0 0 2 0 1 4 1 2 8 2 3 16 3 4 25 4 5 24 5 6 17 3 7 10 6 8 7 6 9 8 6 10 11 6 11 15 7 12 14 7 13 64 8 14 65 9 15 0 10 16 10 10 17 11 10 18 5 10 19 5 11 20 11 11 21 13 12 22 9 13 23 11 14 24 8 14 25 14 14 26 15 14 27 65 9 28 64 8 29 66 15 30 71 16 31 2 17 32 55 18 33 56 19 34 4 17 35 19 20 36 22 21 37 58 22 38 20 23 39 10 24 40 3 25 41 33 26 42 7 24 43 18 27 44 34 28 45 37 29 46 38 30 47 40 31 48 75 32 49 44 33 50 54 34 51 55 35 52 45 36 53 46 37 54 57 38 55 16 39 56 56 19 57 55 18 58 16 40 59 17 40 60 24 5 61 25 4 62 26 41 63 27 41 64 16 39 65 57 38 66 47 42 67 53 43 68 33 26 69 3 25 70 1 44 71 32 45 72 32 45 73 1 44 74 39 46 75 31 47 76 31 47 77 39 46 78 29 48 79 30 48 80 39 46 81 1 44 82 28 49 83 38 30 84 2 50 85 7 50 86 18 27 87 37 29 88 34 28 89 35 51 90 36 51 91 0 52 92 58 22 93 22 21 94 10 52 95 20 23 96 21 53 97 23 53 98 19 20 99 54 34 100 44 33 101 45 36 102 55 35 103 63 54 104 8 2 105 4 1 106 59 55 107 59 55 108 60 56 109 12 57 110 63 54 111 12 57 112 60 56 113 61 58 114 62 58 115 71 16 116 66 15 117 67 59 118 70 60 119 70 60 120 67 59 121 68 61 122 69 61 123 74 62 124 6 63 125 72 63 126 73 64 127 73 64 128 9 13 129 13 12 130 74 62 131 75 32 132 40 31 133 41 65 134 42 65 135 43 65 136 52 66 137 47 42 138 48 67 139 49 67 140 50 67 141 51 67 142 53 43 143 47 42 144 52 66 145</p>
        </polylist>
      </mesh>
    </geometry>
    <geometry id="Cube_001-mesh" name="Cube.001">
      <mesh>
        <source id="Cube_001-mesh-positions">
          <float_array id="Cube_001-mesh-positions-array" count="24">2.5 0.46875 0 2.5 -0.46875 0 -2.5 -0.4687498 0 -2.5 0.4687504 0 2.5 0.4687495 5 2.499999 -0.4687506 5 -2.5 -0.4687497 5 -2.5 0.46875 5</float_array>
          <technique_common>
            <accessor source="#Cube_001-mesh-positions-array" count="8" stride="3">
              <param name="X" type="float"/>
              <param name="Y" type="float"/>
              <param name="Z" type="float"/>
            </accessor>
          </technique_common>
        </source>
        <source id="Cube_001-mesh-normals">
          <float_array id="Cube_001-mesh-normals-array" count="18">0 0 -1 0 0 1 1 -4.06901e-7 0 0 -1 0 -1 0 0 0 1 0</float_array>
          <technique_common>
            <accessor source="#Cube_001-mesh-normals-array" count="6" stride="3">
              <param name="X" type="float"/>
              <param name="Y" type="float"/>
              <param name="Z" type="float"/>
            </accessor>
          </technique_common>
        </source>
        <source id="Cube_001-mesh-map-0">
          <float_array id="Cube_001-mesh-map-0-array" count="48">0.07674705 0.465246 0.07674705 0.3888327 0.4842839 0.3888326 0.4842839 0.465246 0.07674717 0.8727827 0.4842839 0.8727826 0.4842839 0.9491958 0.07674723 0.9491959 0.07674705 0.465246 0.07674717 0.8727827 3.34035e-4 0.8727827 3.34095e-4 0.465246 0.9682337 0.4652459 0.9682336 0.8727825 0.5606971 0.8727826 0.5606971 0.465246 0.5606971 0.465246 0.5606971 0.8727826 0.4842839 0.8727826 0.4842839 0.465246 0.07674717 0.8727827 0.07674705 0.465246 0.4842839 0.465246 0.4842839 0.8727826</float_array>
          <technique_common>
            <accessor source="#Cube_001-mesh-map-0-array" count="24" stride="2">
              <param name="S" type="float"/>
              <param name="T" type="float"/>
            </accessor>
          </technique_common>
        </source>
        <vertices id="Cube_001-mesh-vertices">
          <input semantic="POSITION" source="#Cube_001-mesh-positions"/>
        </vertices>
        <polylist material="GameBoyBox-material" count="6">
          <input semantic="VERTEX" source="#Cube_001-mesh-vertices" offset="0"/>
          <input semantic="NORMAL" source="#Cube_001-mesh-normals" offset="1"/>
          <input semantic="TEXCOORD" source="#Cube_001-mesh-map-0" offset="2" set="0"/>
          <vcount>4 4 4 4 4 4 </vcount>
          <p>0 0 0 1 0 1 2 0 2 3 0 3 4 1 4 7 1 5 6 1 6 5 1 7 0 2 8 4 2 9 5 2 10 1 2 11 1 3 12 5 3 13 6 3 14 2 3 15 2 4 16 6 4 17 7 4 18 3 4 19 4 5 20 0 5 21 3 5 22 7 5 23</p>
        </polylist>
      </mesh>
    </geometry>
  </library_geometries>
  <library_visual_scenes>
    <visual_scene id="Scene" name="Scene">
      <node id="GameBoyBox_LOD0" name="GameBoyBox_LOD0" type="NODE">
        <matrix sid="transform">1 0 0 0 0 1 0 0 0 0 1 0 0 0 0 1</matrix>
        <instance_geometry url="#Plane_001-mesh" name="GameBoyBox_LOD0">
          <bind_material>
            <technique_common>
              <instance_material symbol="GameBoyBox-material" target="#GameBoyBox-material">
                <bind_vertex_input semantic="UVMap" input_semantic="TEXCOORD" input_set="0"/>
              </instance_material>
            </technique_common>
          </bind_material>
        </instance_geometry>
      </node>
      <node id="GameBoyBox_LOD1" name="GameBoyBox_LOD1" type="NODE">
        <matrix sid="transform">1 0 0 0 0 1 0 0 0 0 1 0 0 0 0 1</matrix>
        <instance_geometry url="#Plane-mesh" name="GameBoyBox_LOD1">
          <bind_material>
            <technique_common>
              <instance_material symbol="GameBoyBox-material" target="#GameBoyBox-material">
                <bind_vertex_input semantic="UVMap" input_semantic="TEXCOORD" input_set="0"/>
              </instance_material>
            </technique_common>
          </bind_material>
        </instance_geometry>
      </node>
      <node id="GameBoyBox_LOD2" name="GameBoyBox_LOD2" type="NODE">
        <matrix sid="transform">1 0 0 0 0 1 0 0 0 0 1 0 0 0 0 1</matrix>
        <instance_geometry url="#Cube_001-mesh" name="GameBoyBox_LOD2">
          <bind_material>
            <technique_common>
              <instance_material symbol="GameBoyBox-material" target="#GameBoyBox-material">
                <bind_vertex_input semantic="Cube-mesh-map-0" input_semantic="TEXCOORD" input_set="0"/>
              </instance_material>
            </technique_common>
          </bind_material>
        </instance_geometry>
      </node>
    </visual_scene>
  </library_visual_scenes>
  <scene>
    <instance_visual_scene url="#Scene"/>
  </scene>
</COLLADA>